[gd_scene load_steps=3 format=3 uid="uid://i2fkc3hqw34y"]

[ext_resource type="Script" path="res://levels/tools/objects_placer.gd" id="1_6evyq"]
[ext_resource type="PackedScene" uid="uid://cohjmb7wkxf2b" path="res://assets/level_environments/0-prepared_level_game_objects/ammo_pickup_high.tscn" id="2_htt62"]

[node name="PlacerAmmoPickupHigh" type="Node3D"]
script = ExtResource("1_6evyq")
objects_number = 16
object_scene = ExtResource("2_htt62")
placement_space_size = Vector3(490, 200, 490)
delta_pos = Vector3(0, 0.3, 0)
