[gd_scene load_steps=3 format=3 uid="uid://xehw37j3237e"]

[ext_resource type="Script" path="res://levels/tools/objects_placer.gd" id="1_0s176"]
[ext_resource type="PackedScene" uid="uid://cwktxisdsq2p" path="res://assets/level_environments/0-prepared_level_game_objects/health_pickup_low.tscn" id="2_4tujr"]

[node name="PlacerHealthPickupLow" type="Node3D"]
script = ExtResource("1_0s176")
objects_number = 32
object_scene = ExtResource("2_4tujr")
placement_space_size = Vector3(490, 200, 490)
delta_pos = Vector3(0, 0.3, 0)
