[gd_scene load_steps=3 format=3 uid="uid://h2tady67pfw4"]

[ext_resource type="Script" path="res://levels/tools/objects_placer.gd" id="1_w4u62"]
[ext_resource type="PackedScene" uid="uid://c5vurxessmnbr" path="res://assets/level_environments/0-prepared_level_game_objects/ammo_pickup_low.tscn" id="2_wnu6o"]

[node name="PlacerAmmoPickupLow" type="Node3D"]
script = ExtResource("1_w4u62")
objects_number = 32
object_scene = ExtResource("2_wnu6o")
placement_space_size = Vector3(490, 200, 490)
delta_pos = Vector3(0, 0.3, 0)
