[gd_scene load_steps=3 format=3 uid="uid://o5ii7mhr1jte"]

[ext_resource type="Script" path="res://levels/tools/objects_placer.gd" id="1_k351i"]
[ext_resource type="PackedScene" uid="uid://bkrgknvtnq4cn" path="res://assets/level_environments/0-prepared_level_game_objects/health_pickup_high.tscn" id="2_ndxb1"]

[node name="PlacerHealthPickupHigh" type="Node3D"]
script = ExtResource("1_k351i")
objects_number = 16
object_scene = ExtResource("2_ndxb1")
placement_space_size = Vector3(490, 200, 490)
delta_pos = Vector3(0, 0.3, 0)
