[gd_scene load_steps=3 format=3 uid="uid://dbxolhgt26ha8"]

[ext_resource type="Script" path="res://vehicles/ai/steering_drivers/vehicle_ai_steering_driver_ps.gd" id="1_84nd0"]
[ext_resource type="PackedScene" uid="uid://6mj7baxb72g0" path="res://vehicles/ai/steering_behaviors/priority_steering/bus_ai_steering_ps.tscn" id="3"]

[node name="BusAIDriverPrioritySteering" type="Node3D"]
script = ExtResource("1_84nd0")
priority_steering_identifier_list = Array[String](["pursue_group", "wander_group"])
vehicle_sound_name = "vehicle_engine_1"

[node name="BusAIPrioritySteering" parent="." instance=ExtResource("3")]
behaviors_file = "res://vehicles/ai/config_data/vehicle_ai_behaviors.json"
behavior_group_file_dict = {
"pursue_group": "res://vehicles/ai/config_data/vehicle_ai_behavior_groups.json",
"wander_group": "res://vehicles/ai/config_data/vehicle_ai_behavior_groups2.json"
}
initial_behavior_group_identifier = "wander_group"

[node name="TargetRight" parent="BusAIPrioritySteering/BusAI/Body/ShooterAIDriver/ShooterAIPrioritySteering/ShooterAI/RotationHelper/AimingTargets" index="0"]
transform = Transform3D(0.0279981, 0.0988603, 1.17476, 1.09941, 0.422021, -0.0617169, -0.42559, 1.0967, -0.0821478, -0.261881, -0.167422, 0.577474)

[node name="TargetLeft" parent="BusAIPrioritySteering/BusAI/Body/ShooterAIDriver/ShooterAIPrioritySteering/ShooterAI/RotationHelper/AimingTargets" index="2"]
transform = Transform3D(-0.406254, -1.10695, 0.0153629, -1.08547, 0.395076, -0.237271, 0.217578, -0.0958819, -1.15503, -0.054, -0.1, 0.373)

[editable path="BusAIPrioritySteering"]
[editable path="BusAIPrioritySteering/BusAI"]
[editable path="BusAIPrioritySteering/BusAI/Body"]
[editable path="BusAIPrioritySteering/BusAI/Body/VehicleLabel"]
[editable path="BusAIPrioritySteering/BusAI/Body/Bus"]
[editable path="BusAIPrioritySteering/BusAI/Body/WheelFL"]
[editable path="BusAIPrioritySteering/BusAI/Body/WheelFR"]
[editable path="BusAIPrioritySteering/BusAI/Body/WheelRL"]
[editable path="BusAIPrioritySteering/BusAI/Body/WheelRR"]
[editable path="BusAIPrioritySteering/BusAI/Body/FollowCamera"]
[editable path="BusAIPrioritySteering/BusAI/Body/ShooterAIDriver"]
[editable path="BusAIPrioritySteering/BusAI/Body/ShooterAIDriver/ShooterAIPrioritySteering"]
[editable path="BusAIPrioritySteering/BusAI/Body/ShooterAIDriver/ShooterAIPrioritySteering/ShooterAI"]
[editable path="BusAIPrioritySteering/BusAI/Body/ShooterAIDriver/ShooterAIPrioritySteering/ShooterAI/RotationHelper/AnimatedModel"]
