[gd_scene load_steps=3 format=3 uid="uid://ucba5k83g8b"]

[ext_resource type="Script" path="res://vehicles/ai/steering_drivers/vehicle_ai_steering_driver_ps.gd" id="1_0xfq8"]
[ext_resource type="PackedScene" uid="uid://bnbdk3mi0gmav" path="res://vehicles/ai/steering_behaviors/priority_steering/pickup_ai_steering_ps.tscn" id="2"]

[node name="PickupAIDriverPrioritySteering" type="Node3D"]
script = ExtResource("1_0xfq8")
priority_steering_identifier_list = Array[String](["pursue_group", "wander_group"])
vehicle_sound_name = "vehicle_engine_2"

[node name="PickupAIPrioritySteering" parent="." instance=ExtResource("2")]
behaviors_file = "res://vehicles/ai/config_data/vehicle_ai_behaviors.json"
behavior_group_file_dict = {
"pursue_group": "res://vehicles/ai/config_data/vehicle_ai_behavior_groups.json",
"wander_group": "res://vehicles/ai/config_data/vehicle_ai_behavior_groups2.json"
}
initial_behavior_group_identifier = "wander_group"

[node name="TargetRight" parent="PickupAIPrioritySteering/PickupAI/Body/ShooterAIDriver/ShooterAIPrioritySteering/ShooterAI/RotationHelper/AimingTargets" index="0"]
transform = Transform3D(0.0237984, 0.0840313, 0.998546, 0.934501, 0.358718, -0.0524594, -0.361752, 0.932193, -0.0698256, -0.287677, -0.279941, 0.540893)

[node name="TargetLeft" parent="PickupAIPrioritySteering/PickupAI/Body/ShooterAIDriver/ShooterAIPrioritySteering/ShooterAI/RotationHelper/AimingTargets" index="2"]
transform = Transform3D(-0.345316, -0.940908, 0.0130584, -0.922646, 0.335814, -0.20168, 0.184942, -0.0814996, -0.981772, -0.054, -0.1, 0.373)

[editable path="PickupAIPrioritySteering"]
[editable path="PickupAIPrioritySteering/PickupAI"]
[editable path="PickupAIPrioritySteering/PickupAI/Body"]
[editable path="PickupAIPrioritySteering/PickupAI/Body/VehicleLabel"]
[editable path="PickupAIPrioritySteering/PickupAI/Body/Pickup"]
[editable path="PickupAIPrioritySteering/PickupAI/Body/WheelFL"]
[editable path="PickupAIPrioritySteering/PickupAI/Body/WheelFR"]
[editable path="PickupAIPrioritySteering/PickupAI/Body/WheelRL"]
[editable path="PickupAIPrioritySteering/PickupAI/Body/WheelRR"]
[editable path="PickupAIPrioritySteering/PickupAI/Body/FollowCamera"]
[editable path="PickupAIPrioritySteering/PickupAI/Body/ShooterAIDriver"]
[editable path="PickupAIPrioritySteering/PickupAI/Body/ShooterAIDriver/ShooterAIPrioritySteering"]
[editable path="PickupAIPrioritySteering/PickupAI/Body/ShooterAIDriver/ShooterAIPrioritySteering/ShooterAI"]
[editable path="PickupAIPrioritySteering/PickupAI/Body/ShooterAIDriver/ShooterAIPrioritySteering/ShooterAI/RotationHelper/AnimatedModel"]
