[gd_scene load_steps=3 format=3 uid="uid://43ps6u27ov15"]

[ext_resource type="Script" path="res://levels/tools/objects_placer.gd" id="1_qkfaf"]
[ext_resource type="PackedScene" uid="uid://b5r477mwqt7wd" path="res://vehicles/ai/steering_drivers/steering_pipeline/pickup_ai_driver_sp_2.tscn" id="2_qkh2k"]

[node name="PlacerSteeringDriverPickupAISteeringPipeline2" type="Node3D"]
script = ExtResource("1_qkfaf")
objects_number = 1
object_scene = ExtResource("2_qkh2k")
delta_pos = Vector3(0, 0.2, 0)
