[gd_scene load_steps=3 format=3 uid="uid://0wyf4aoa3gye"]

[ext_resource type="Script" path="res://levels/tools/objects_placer.gd" id="1_4ajrn"]
[ext_resource type="PackedScene" uid="uid://cqughkrj0aeka" path="res://vehicles/ai/steering_drivers/steering_pipeline/car01_ai_driver_sp_2.tscn" id="2_b106v"]

[node name="PlacerSteeringDriverCar01AISteeringPipeline2" type="Node3D"]
script = ExtResource("1_4ajrn")
objects_number = 1
object_scene = ExtResource("2_b106v")
delta_pos = Vector3(0, 0.2, 0)
