[gd_scene load_steps=3 format=3 uid="uid://d2g8ikc627rcu"]

[ext_resource type="Script" path="res://levels/tools/objects_placer.gd" id="1_6cat8"]
[ext_resource type="PackedScene" uid="uid://q4tf8oydpegt" path="res://vehicles/ai/steering_drivers/steering_pipeline/wagon_ai_driver_sp_1.tscn" id="2_ys3ml"]

[node name="PlacerSteeringDriverWagonAISteeringPipeline1" type="Node3D"]
script = ExtResource("1_6cat8")
objects_number = 1
object_scene = ExtResource("2_ys3ml")
delta_pos = Vector3(0, 0.2, 0)
