[gd_scene load_steps=3 format=3 uid="uid://cn6e0yntgjr23"]

[ext_resource type="Script" path="res://levels/tools/objects_placer.gd" id="1_2o1bl"]
[ext_resource type="PackedScene" uid="uid://wfj72ypp0civ" path="res://vehicles/ai/steering_drivers/steering_pipeline/pickup_ai_driver_sp_1.tscn" id="2_ekl6d"]

[node name="PlacerSteeringDriverPickupAISteeringPipeline1" type="Node3D"]
script = ExtResource("1_2o1bl")
objects_number = 1
object_scene = ExtResource("2_ekl6d")
delta_pos = Vector3(0, 0.2, 0)
