[gd_scene load_steps=3 format=3 uid="uid://hgn2hpg4f622"]

[ext_resource type="Script" path="res://levels/tools/objects_placer.gd" id="1_pvkfk"]
[ext_resource type="PackedScene" uid="uid://cpasov4y6ym27" path="res://vehicles/ai/steering_drivers/steering_pipeline/car01_ai_driver_sp_1.tscn" id="2_g1glt"]

[node name="PlacerSteeringDriverCar01AISteeringPipeline1" type="Node3D"]
script = ExtResource("1_pvkfk")
objects_number = 1
object_scene = ExtResource("2_g1glt")
delta_pos = Vector3(0, 0.2, 0)
