[gd_scene load_steps=2 format=3 uid="uid://pn52lfn4yrkp"]

[ext_resource type="PackedScene" uid="uid://creenihgwycrt" path="res://xxx-no-export/levels/old/dynamic_number_items_common/vehicle_ai_steering_drivers_sp/steering_driver_bus_ai_sp_1_placer.tscn" id="1_xwkcx"]

[node name="SteeringDriverBusAISteeringPipeline1Placer" instance=ExtResource("1_xwkcx")]
placement_objects_names = Array[String](["roads_city02"])
