[gd_scene load_steps=2 format=3 uid="uid://biy24lmdita1u"]

[ext_resource type="PackedScene" uid="uid://b48e6a7gvop" path="res://xxx-no-export/levels/old/dynamic_number_items_common/vehicle_ai_steering_drivers_sp/steering_driver_wagon_ai_sp_2_placer.tscn" id="1_qf6qj"]

[node name="SteeringDriverWagonAISteeringPipeline2Placer" instance=ExtResource("1_qf6qj")]
placement_objects_names = Array[String](["roads_city02"])
