[gd_scene load_steps=2 format=3 uid="uid://ci53rvf2hj4sy"]

[ext_resource type="PackedScene" uid="uid://bpnylwsy4vyd" path="res://xxx-no-export/levels/old/dynamic_number_items_common/vehicle_ai_steering_drivers_sp/steering_driver_pickup_ai_sp_1_placer.tscn" id="1_dd7nf"]

[node name="SteeringDriverPickupAISteeringPipeline1Placer" instance=ExtResource("1_dd7nf")]
placement_objects_names = Array[String](["roads_city02"])
