[gd_scene load_steps=5 format=3 uid="uid://wfj72ypp0civ"]

[ext_resource type="Script" path="res://vehicles/ai/steering_drivers/vehicle_ai_steering_driver_sp.gd" id="1_t6lf1"]
[ext_resource type="PackedScene" uid="uid://y6pts8cvrkk1" path="res://vehicles/ai/steering_behaviors/steering_pipeline/pickup_ai_steering_sp.tscn" id="2_uu1x5"]
[ext_resource type="Material" uid="uid://ge1ay0kb7dv" path="res://assets/materials/BaseColor02.material" id="3_ahy8q"]
[ext_resource type="Material" uid="uid://ccjkgv2rph4ro" path="res://assets/materials/BaseColor05.material" id="4_abo24"]

[node name="PickupAIDriverSteeringPipeline1" type="Node3D"]
script = ExtResource("1_t6lf1")
steering_pipeline_identifier_list = Array[String](["chase_seek", "chase_seek_min_dist"])
gather_area_radius = 20.0
vehicle_sound_name = "vehicle_engine_2"

[node name="PickupAISteeringPipeline" parent="." instance=ExtResource("2_uu1x5")]
steering_pipeline_file_dict = {
"chase_seek": "res://vehicles/ai/config_data/steering_pipeline_chase_seek.json",
"chase_seek_min_dist": "res://vehicles/ai/config_data/steering_pipeline_chase_seek_min_dist.json",
"stand_still": "res://vehicles/ai/config_data/steering_pipeline_stand_still.json"
}
initial_steering_pipeline_identifier = "chase_seek"

[node name="Pickup" parent="PickupAISteeringPipeline/PickupAI/Body" index="1"]
material_list = Array[Material]([ExtResource("3_ahy8q"), ExtResource("4_abo24")])

[node name="TargetRight" parent="PickupAISteeringPipeline/PickupAI/Body/ShooterAIDriver/ShooterAIPrioritySteering/ShooterAI/RotationHelper/AimingTargets" index="0"]
transform = Transform3D(0.0237984, 0.0840313, 0.998546, 0.934501, 0.358718, -0.0524594, -0.361752, 0.932193, -0.0698256, -0.287677, -0.279941, 0.540893)

[node name="TargetLeft" parent="PickupAISteeringPipeline/PickupAI/Body/ShooterAIDriver/ShooterAIPrioritySteering/ShooterAI/RotationHelper/AimingTargets" index="2"]
transform = Transform3D(-0.345316, -0.940908, 0.0130584, -0.922646, 0.335814, -0.20168, 0.184942, -0.0814996, -0.981772, -0.054, -0.1, 0.373)

[editable path="PickupAISteeringPipeline"]
[editable path="PickupAISteeringPipeline/PickupAI"]
[editable path="PickupAISteeringPipeline/PickupAI/Body"]
[editable path="PickupAISteeringPipeline/PickupAI/Body/VehicleLabel"]
[editable path="PickupAISteeringPipeline/PickupAI/Body/Pickup"]
[editable path="PickupAISteeringPipeline/PickupAI/Body/WheelFL"]
[editable path="PickupAISteeringPipeline/PickupAI/Body/WheelFR"]
[editable path="PickupAISteeringPipeline/PickupAI/Body/WheelRL"]
[editable path="PickupAISteeringPipeline/PickupAI/Body/WheelRR"]
[editable path="PickupAISteeringPipeline/PickupAI/Body/FollowCamera"]
[editable path="PickupAISteeringPipeline/PickupAI/Body/ShooterAIDriver"]
[editable path="PickupAISteeringPipeline/PickupAI/Body/ShooterAIDriver/ShooterAIPrioritySteering"]
[editable path="PickupAISteeringPipeline/PickupAI/Body/ShooterAIDriver/ShooterAIPrioritySteering/ShooterAI"]
[editable path="PickupAISteeringPipeline/PickupAI/Body/ShooterAIDriver/ShooterAIPrioritySteering/ShooterAI/RotationHelper/AnimatedModel"]
