[gd_scene load_steps=5 format=3 uid="uid://cfvrbpdih2kx4"]

[ext_resource type="Script" path="res://vehicles/ai/steering_drivers/vehicle_ai_steering_driver_sp.gd" id="1_yo2p1"]
[ext_resource type="PackedScene" uid="uid://4srf7hdpj26k" path="res://vehicles/ai/steering_behaviors/steering_pipeline/wagon_ai_steering_sp.tscn" id="2_u2vvl"]
[ext_resource type="Material" uid="uid://bsr6l6f5q36tm" path="res://assets/materials/BaseColor10.material" id="3_i8xjq"]
[ext_resource type="Material" uid="uid://c5oe07uglbi3" path="res://assets/materials/BaseColor17.material" id="4_25r3w"]

[node name="WagonAIDriverSteeringPipeline2" type="Node3D"]
script = ExtResource("1_yo2p1")
steering_pipeline_identifier_list = Array[String](["chase_arrive", "chase_arrive_min_dist"])
gather_area_radius = 20.0
vehicle_sound_name = "vehicle_engine_loop"

[node name="WagonAISteeringPipeline" parent="." instance=ExtResource("2_u2vvl")]
steering_pipeline_file_dict = {
"chase_arrive": "res://vehicles/ai/config_data/steering_pipeline_chase_arrive.json",
"chase_arrive_min_dist": "res://vehicles/ai/config_data/steering_pipeline_chase_arrive_min_dist.json",
"stand_still": "res://vehicles/ai/config_data/steering_pipeline_stand_still.json"
}
initial_steering_pipeline_identifier = "chase_arrive"

[node name="Wagon" parent="WagonAISteeringPipeline/WagonAI/Body" index="1"]
material_list = Array[Material]([ExtResource("3_i8xjq"), ExtResource("4_25r3w")])

[node name="TargetRight" parent="WagonAISteeringPipeline/WagonAI/Body/ShooterAIDriver/ShooterAIPrioritySteering/ShooterAI/RotationHelper/AimingTargets" index="0"]
transform = Transform3D(0.0237984, 0.0840313, 0.998546, 0.934501, 0.358718, -0.0524594, -0.361752, 0.932193, -0.0698256, -0.287677, -0.279941, 0.540893)

[node name="TargetLeft" parent="WagonAISteeringPipeline/WagonAI/Body/ShooterAIDriver/ShooterAIPrioritySteering/ShooterAI/RotationHelper/AimingTargets" index="2"]
transform = Transform3D(-0.345316, -0.940908, 0.0130584, -0.922646, 0.335814, -0.20168, 0.184942, -0.0814996, -0.981772, -0.054, -0.1, 0.373)

[editable path="WagonAISteeringPipeline"]
[editable path="WagonAISteeringPipeline/WagonAI"]
[editable path="WagonAISteeringPipeline/WagonAI/Body"]
[editable path="WagonAISteeringPipeline/WagonAI/Body/VehicleLabel"]
[editable path="WagonAISteeringPipeline/WagonAI/Body/Wagon"]
[editable path="WagonAISteeringPipeline/WagonAI/Body/WheelFL"]
[editable path="WagonAISteeringPipeline/WagonAI/Body/WheelFR"]
[editable path="WagonAISteeringPipeline/WagonAI/Body/WheelRL"]
[editable path="WagonAISteeringPipeline/WagonAI/Body/WheelRR"]
[editable path="WagonAISteeringPipeline/WagonAI/Body/FollowCamera"]
[editable path="WagonAISteeringPipeline/WagonAI/Body/ShooterAIDriver"]
[editable path="WagonAISteeringPipeline/WagonAI/Body/ShooterAIDriver/ShooterAIPrioritySteering"]
[editable path="WagonAISteeringPipeline/WagonAI/Body/ShooterAIDriver/ShooterAIPrioritySteering/ShooterAI"]
[editable path="WagonAISteeringPipeline/WagonAI/Body/ShooterAIDriver/ShooterAIPrioritySteering/ShooterAI/RotationHelper/AnimatedModel"]
