[gd_scene load_steps=3 format=3 uid="uid://c2r2rsy4311a"]

[ext_resource type="Script" path="res://levels/tools/objects_placer.gd" id="1_h3v2f"]
[ext_resource type="PackedScene" uid="uid://ct3yd4p17bfng" path="res://vehicles/ai/steering_drivers/steering_pipeline/sedan_ai_driver_sp_1.tscn" id="2_1y2ad"]

[node name="SteeringDriverSedanAISteeringPipeline1Placer" type="Node3D"]
script = ExtResource("1_h3v2f")
objects_number = 1
object_scene = ExtResource("2_1y2ad")
delta_pos = Vector3(0, 0.2, 0)
