[gd_scene load_steps=2 format=3 uid="uid://cceg32ba6btfx"]

[ext_resource type="PackedScene" uid="uid://c3bvd8s8fwsbe" path="res://levels/0-placer-session_items/placer-gameplay_elements/placer_coin_zone_bronze.tscn" id="1_j3y56"]

[node name="PlacerCoinZoneBronze" instance=ExtResource("1_j3y56")]
placement_objects_names = Array[String](["roads_city01"])
