[gd_scene load_steps=2 format=3 uid="uid://bmq00hpxowemh"]

[ext_resource type="PackedScene" uid="uid://o5ii7mhr1jte" path="res://levels/0-placer-session_items/placer-gameplay_elements/placer_health_pickup_high.tscn" id="1_grui5"]

[node name="PlacerHealthPickupHigh" instance=ExtResource("1_grui5")]
placement_objects_names = Array[String](["roads_city01", "terrain_city01", "sidewalks_city01"])
placement_mask_object_name = "navmesh_city01"
