[gd_scene load_steps=3 format=3 uid="uid://b0ojh5g08dh7v"]

[ext_resource type="Script" path="res://levels/tools/objects_placer.gd" id="1_hx2m6"]
[ext_resource type="PackedScene" uid="uid://scvnsrw2435k" path="res://assets/level_environments/0-prepared_level_game_objects/turret_raycast_low.tscn" id="2_465ty"]

[node name="PlacerTurretRaycastLow" type="Node3D"]
script = ExtResource("1_hx2m6")
object_scene = ExtResource("2_465ty")
placement_space_size = Vector3(490, 200, 490)
