[gd_scene load_steps=2 format=3 uid="uid://wisu8dovvmc8"]

[ext_resource type="Texture2D" uid="uid://bekt5b8gcmc33" path="res://assets/images/JOYSTICK.png" id="1"]

[node name="ImageJoystick" type="TextureRect"]
offset_top = 104.0
offset_right = 676.0
offset_bottom = 452.0
size_flags_vertical = 3
texture = ExtResource("1")
expand_mode = 1
stretch_mode = 6
