[gd_scene load_steps=2 format=3 uid="uid://dke5lvwflu8k8"]

[ext_resource type="Texture2D" uid="uid://drsy6n4j088uh" path="res://assets/images/KB-MOUSE.png" id="1"]

[node name="ImageKB" type="TextureRect"]
offset_top = 104.0
offset_right = 676.0
offset_bottom = 452.0
size_flags_vertical = 3
texture = ExtResource("1")
expand_mode = 1
stretch_mode = 6
