[gd_scene load_steps=2 format=3 uid="uid://c2vl3uoon7lgw"]

[ext_resource type="Texture2D" uid="uid://dg8i0as3vrhmm" path="res://assets/images/FW_VA-BW_VA-BR_VB-ST_AC.png" id="1"]

[node name="ImageFW_VA-BW_VA-BR_VB-ST_AC" type="TextureRect"]
offset_top = 104.0
offset_right = 676.0
offset_bottom = 452.0
size_flags_vertical = 3
texture = ExtResource("1")
expand_mode = 1
stretch_mode = 6
