[gd_scene load_steps=2 format=3 uid="uid://ds32wcaxxkkwu"]

[ext_resource type="Texture2D" uid="uid://o18ump4rk0t3" path="res://assets/images/FW_VA-BW_VA-BR_VB-ST_VA.png" id="1"]

[node name="ImageFW_VA-BW_VA-BR_VB-ST_VA" type="TextureRect"]
offset_top = 104.0
offset_right = 676.0
offset_bottom = 452.0
size_flags_vertical = 3
texture = ExtResource("1")
expand_mode = 1
stretch_mode = 6
