[gd_scene load_steps=2 format=3 uid="uid://b4w3ewtd3rys4"]

[ext_resource type="PackedScene" uid="uid://k4ntjtb1pnfk" path="res://levels/0-placer-session_items/placer-vehicle_ai_steering_drivers_sp/placer_steering_driver_bus_ai_sp_2.tscn" id="1_y8emj"]

[node name="PlacerSteeringDriverBusAISteeringPipeline2" instance=ExtResource("1_y8emj")]
placement_objects_names = Array[String](["landscape_debug"])
placement_mask_object_name = "navmesh_debug"
