[gd_scene load_steps=2 format=3 uid="uid://bo1eeb5yof52o"]

[ext_resource type="PackedScene" uid="uid://q0e5r8is5xyv" path="res://levels/0-placer-session_items/placer-vehicle_ai_steering_drivers_sp/placer_steering_driver_sedan_ai_sp_1.tscn" id="1_ny0xc"]

[node name="PlacerSteeringDriverSedanAISteeringPipeline1" instance=ExtResource("1_ny0xc")]
placement_objects_names = Array[String](["landscape_debug"])
placement_mask_object_name = "navmesh_debug"
