[gd_scene load_steps=3 format=3 uid="uid://oxmjgnbgerqm"]

[ext_resource type="Script" path="res://levels/tools/objects_placer.gd" id="1_ol7jb"]
[ext_resource type="PackedScene" uid="uid://ucba5k83g8b" path="res://vehicles/ai/steering_drivers/priority_steering/pickup_ai_driver_ps.tscn" id="2_gin48"]

[node name="SteeringDriverPickupAIPrioritySteeringPlacer" type="Node3D"]
script = ExtResource("1_ol7jb")
objects_number = 1
object_scene = ExtResource("2_gin48")
delta_pos = Vector3(0, 0.2, 0)
