{
	"CURVES":[
		"res://assets/vehicles/rotators_pitch_curves/bus_fpscamera_unarmed_up_pitch.tres",
		"res://assets/vehicles/rotators_pitch_curves/bus_fpscamera_unarmed_down_pitch.tres",
		"res://assets/vehicles/rotators_pitch_curves/pickup_fpscamera_gun_up_pitch_right.tres",
		"res://assets/vehicles/rotators_pitch_curves/pickup_fpscamera_gun_up_pitch_left.tres",
		"res://assets/vehicles/rotators_pitch_curves/pickup_fpscamera_gun_down_pitch_right.tres",
		"res://assets/vehicles/rotators_pitch_curves/pickup_fpscamera_gun_down_pitch_left.tres",
		"res://assets/vehicles/rotators_pitch_curves/pickup_fpscamera_rifle_up_pitch_right.tres",
		"res://assets/vehicles/rotators_pitch_curves/pickup_fpscamera_rifle_up_pitch_left.tres",
		"res://assets/vehicles/rotators_pitch_curves/pickup_fpscamera_rifle_down_pitch_right.tres",
		"res://assets/vehicles/rotators_pitch_curves/pickup_fpscamera_rifle_down_pitch_left.tres",
		"res://assets/vehicles/rotators_pitch_curves/pickup_fpscamera_launcher_up_pitch_right.tres",
		"res://assets/vehicles/rotators_pitch_curves/pickup_fpscamera_launcher_up_pitch_left.tres",
		"res://assets/vehicles/rotators_pitch_curves/pickup_fpscamera_launcher_down_pitch_right.tres",
		"res://assets/vehicles/rotators_pitch_curves/pickup_fpscamera_launcher_down_pitch_left.tres",
	], 
	"UNARMED": {
		"max_up_pitch_right_curve": 0,
		"max_up_pitch_left_curve": 0,
		"max_down_pitch_right_curve": 1,
		"max_down_pitch_left_curve": 1,
	},
	"GUN": {
		"max_up_pitch_right_curve": 2,
		"max_up_pitch_left_curve": 3,
		"max_down_pitch_right_curve": 4,
		"max_down_pitch_left_curve": 5,
	},
	"RIFLE": {
		"max_up_pitch_right_curve": 6,
		"max_up_pitch_left_curve": 7,
		"max_down_pitch_right_curve": 8,
		"max_down_pitch_left_curve": 9,
	},
	"LAUNCHER": {
		"max_up_pitch_right_curve": 10,
		"max_up_pitch_left_curve": 11,
		"max_down_pitch_right_curve": 12,
		"max_down_pitch_left_curve": 13,
	},
}
