[gd_scene load_steps=2 format=3 uid="uid://cvlmmj08y6bpk"]

[ext_resource type="PackedScene" uid="uid://dv3jgs3gjlu85" path="res://levels/0-placer-session_items/placer-scene_elements/placer_turret_bullet_low.tscn" id="1_deh7k"]

[node name="PlacerTurretBulletLow" instance=ExtResource("1_deh7k")]
placement_objects_names = Array[String](["terrain_city01", "sidewalks_city01"])
placement_mask_object_name = "navmesh_city01"
