[gd_scene load_steps=2 format=3 uid="uid://byejci3dh7xvr"]

[ext_resource type="PackedScene" uid="uid://du85up0r8lrup" path="res://levels/0-placer-session_items/placer-scene_elements/placer_turret_bullet_high.tscn" id="1_aag0c"]

[node name="PlacerTurretBulletHigh" instance=ExtResource("1_aag0c")]
placement_objects_names = Array[String](["terrain_city01", "sidewalks_city01"])
placement_mask_object_name = "navmesh_city01"
