[gd_scene load_steps=6 format=3 uid="uid://ckot88nibrm6b"]

[ext_resource type="Script" path="res://levels/elements/boost_zone.gd" id="1"]
[ext_resource type="Texture2D" uid="uid://b3gd8ec2t4hj5" path="res://assets/images/Jumping_Pad_02.png" id="3"]

[sub_resource type="StandardMaterial3D" id="1"]
transparency = 1
albedo_color = Color(0.858824, 0.301961, 0.172549, 0.498039)

[sub_resource type="BoxMesh" id="2"]
material = SubResource("1")
size = Vector3(2, 1.9, 6)

[sub_resource type="BoxShape3D" id="BoxShape3D_4vvi8"]
size = Vector3(2, 2, 6)

[node name="BoostZone" type="Area3D"]
collision_layer = 128
collision_mask = 10
script = ExtResource("1")

[node name="DebugMesh" type="MeshInstance3D" parent="."]
visible = false
mesh = SubResource("2")

[node name="CollisionShape3D" type="CollisionShape3D" parent="."]
shape = SubResource("BoxShape3D_4vvi8")

[node name="DecalTexture" type="Decal" parent="."]
size = Vector3(2, 2, 6)
texture_albedo = ExtResource("3")
distance_fade_enabled = true
cull_mask = 1048573
