[gd_scene load_steps=5 format=3 uid="uid://cg28h8w7vqxpj"]

[ext_resource type="Script" path="res://levels/elements/explosive_object.gd" id="2_f5wra"]
[ext_resource type="PackedScene" uid="uid://2ovgjnj1wd5t" path="res://levels/elements/explosion_holder.tscn" id="4_rsgcl"]

[sub_resource type="SphereShape3D" id="SphereShape3D_17y0o"]

[sub_resource type="SphereShape3D" id="2"]
radius = 6.0

[node name="ExplosiveObject" type="RigidBody3D"]
collision_layer = 512
collision_mask = 98367
can_sleep = false
contact_monitor = true
max_contacts_reported = 1
script = ExtResource("2_f5wra")

[node name="CollisionShape3D" type="CollisionShape3D" parent="."]
shape = SubResource("SphereShape3D_17y0o")

[node name="BlastArea" type="Area3D" parent="."]
collision_layer = 512
collision_mask = 63
input_ray_pickable = false
angular_damp = 1.0

[node name="CollisionShape3D" type="CollisionShape3D" parent="BlastArea"]
shape = SubResource("2")

[node name="ExplosionHolder" parent="." instance=ExtResource("4_rsgcl")]
