[gd_scene load_steps=3 format=3 uid="uid://die77g18g6mkg"]

[ext_resource type="Script" path="res://levels/elements/fire_holder.gd" id="1_lev2v"]
[ext_resource type="PackedScene" uid="uid://cpjponfqpkhtt" path="res://levels/elements/fire.tscn" id="2_raxyt"]

[node name="FireHolder" type="RemoteTransform3D"]
remote_path = NodePath(".")
update_rotation = false
update_scale = false
script = ExtResource("1_lev2v")
effect_scene = ExtResource("2_raxyt")
effect_sound = "fire"
