[gd_scene load_steps=3 format=3 uid="uid://du5cvpgkebrwc"]

[ext_resource type="Texture2D" uid="uid://ccjpvj1ruooea" path="res://assets/images/laser_spot.png" id="1_6oedg"]
[ext_resource type="Script" path="res://levels/elements/laser_pointer.gd" id="1_b5yyy"]

[node name="LaserPointer" type="RayCast3D"]
script = ExtResource("1_b5yyy")

[node name="Spot" type="Decal" parent="."]
size = Vector3(0.25, 0.75, 0.25)
texture_albedo = ExtResource("1_6oedg")
texture_emission = ExtResource("1_6oedg")
emission_energy = 16.0
albedo_mix = 0.5
