[gd_scene load_steps=3 format=3 uid="uid://d08qin6qpj6dt"]

[ext_resource type="Script" path="res://levels/tools/objects_placer.gd" id="1_cng78"]
[ext_resource type="PackedScene" uid="uid://bbmd68qrkhf28" path="res://assets-no-export/level_environments/0-prepared_level_game_objects/turret_bullet_low.tscn" id="2_ytqv5"]

[node name="TurretBulletLowPlacer" type="Node3D"]
script = ExtResource("1_cng78")
objects_number = 2
object_scene = ExtResource("2_ytqv5")
placement_space_size = Vector3(300, 200, 300)
