[gd_scene load_steps=2 format=3 uid="uid://dwgcl4u3ftqgo"]

[ext_resource type="Script" path="res://gui/button_image.gd" id="1"]

[node name="ButtonImage" type="TextureButton"]
custom_minimum_size = Vector2(150, 150)
offset_right = 40.0
offset_bottom = 40.0
size_flags_horizontal = 5
stretch_mode = 5
script = ExtResource("1")
