[gd_scene load_steps=6 format=3 uid="uid://75ui18nq8fc7"]

[ext_resource type="FontFile" uid="uid://dxmpbmb46s6ok" path="res://assets/fonts/Titillium-Regular.otf" id="1"]
[ext_resource type="Script" path="res://gui/score_infos.gd" id="2"]

[sub_resource type="FontVariation" id="FontVariation_0q6xi"]
base_font = ExtResource("1")

[sub_resource type="FontVariation" id="FontVariation_viw8m"]
base_font = ExtResource("1")

[sub_resource type="FontVariation" id="FontVariation_pf8yr"]
base_font = ExtResource("1")

[node name="ScoreInfos" type="VBoxContainer"]
offset_right = 165.0
offset_bottom = 107.0
alignment = 1
script = ExtResource("2")

[node name="Score" type="Label" parent="."]
layout_mode = 2
size_flags_vertical = 6
theme_override_fonts/font = SubResource("FontVariation_0q6xi")
theme_override_font_sizes/font_size = 24
text = "Score: 0"
horizontal_alignment = 1
vertical_alignment = 1

[node name="VehicleNumber" type="Label" parent="."]
layout_mode = 2
size_flags_vertical = 6
theme_override_fonts/font = SubResource("FontVariation_viw8m")
theme_override_font_sizes/font_size = 24
text = "Vehicle: 0/3"
horizontal_alignment = 1
vertical_alignment = 1

[node name="WeaponAmmo" type="Label" parent="."]
layout_mode = 2
size_flags_vertical = 6
theme_override_fonts/font = SubResource("FontVariation_pf8yr")
theme_override_font_sizes/font_size = 24
text = "Weapon: none
Ammo: 000/000"
horizontal_alignment = 1
vertical_alignment = 1
