[gd_scene load_steps=4 format=3 uid="uid://cqviqiainxrk4"]

[ext_resource type="FontFile" uid="uid://dxmpbmb46s6ok" path="res://assets/fonts/Titillium-Regular.otf" id="1"]

[sub_resource type="FontVariation" id="FontVariation_t2dk4"]
base_font = ExtResource("1")

[sub_resource type="FontVariation" id="FontVariation_vn8ua"]
base_font = ExtResource("1")

[node name="WeaponAmmoInfos" type="VBoxContainer"]
offset_right = 113.0
offset_bottom = 106.0
alignment = 1

[node name="Weapon" type="Label" parent="."]
layout_mode = 2
size_flags_vertical = 6
theme_override_fonts/font = SubResource("FontVariation_t2dk4")
theme_override_font_sizes/font_size = 24
text = "Weapon: 0"
horizontal_alignment = 1
vertical_alignment = 1

[node name="Ammo" type="Label" parent="."]
layout_mode = 2
size_flags_vertical = 6
theme_override_fonts/font = SubResource("FontVariation_vn8ua")
theme_override_font_sizes/font_size = 24
text = "Ammo: 0/0"
horizontal_alignment = 1
vertical_alignment = 1
