[gd_scene load_steps=2 format=3 uid="uid://jxhtw1wi5smu"]

[ext_resource type="PackedScene" uid="uid://bmnnr3i1ebeut" path="res://levels/0-placer-session_items/placer-vehicle_ai_steering_drivers_sp/placer_steering_driver_sedan_ai_sp_2.tscn" id="1_jw1js"]

[node name="PlacerSteeringDriverSedanAISteeringPipeline2" instance=ExtResource("1_jw1js")]
placement_objects_names = Array[String](["roads_city01"])
