{
	"dims": 3,
	"stop_on_zero_steering": false,
	"zero_steering_threshold": 0.0,
	"steering_pipeline": {
		"constraint_steps": 2,
		"damping": 0.2
	},
	"chase_targeter": {
		"lookahead": 1.0
	},
	"planning_decomposer": {
		"navmesh_path_optimize": true,
		"min_distance": 0.0,
		"go_to_min_distance": false
	},
	"obstacle_avoidance_constraint": {
		"avoid_distance": 25.0,
		"tangent_factor": 3.0,
		"lookahead": 5.0,
		"num_rays": 1,
		"whiskers_angle": 15.0
	},
	"separation_constraint": {
		"threshold": 5.0,
		"decay_coefficient": 15.0,
		"lookahead": 1.0,
		"max_acceleration": 5.0
	},
	"min_speed_constraint": {
		"min_speed": 0.5,
		"wait_period": 2.5,
		"lock_state_time": 7.0
	},
	"arrive_actuator": {
		"max_acceleration": 5.0,
		"max_speed": 10.0,
		"target_radius": 7.5,
		"slow_radius": 15.0,
		"time_to_target_radius": 0.1,
		"damping": 0.2
	},
	"dead_lock_behavior": {
		"max_acceleration": 5.0,
		"active_period": 3.0,
		"target_distance": 15.0,
		"damping": 0.2
	}
}
