{
	"stop_on_zero_steering": false,
	"zero_steering_threshold": 0.0,
	"Separation": {
		"behavior_set": [
			"separation"
		],
		"priority": 2
	},
	"Wander": {
		"behavior_set": [
			"wander"
		],
		"priority": 3
	},
	"Collision Avoidance": {
		"behavior_set": [
			"obstacle_avoidance"
		],
		"priority": 1
	}
}
