[gd_scene load_steps=5 format=3 uid="uid://dt0cxoi7da5sp"]

[ext_resource type="PackedScene" uid="uid://byn2pfbiv6307" path="res://addons/debug_camera.tscn" id="1_2cagm"]

[sub_resource type="ProceduralSkyMaterial" id="ProceduralSkyMaterial_cj5sp"]
sky_horizon_color = Color(0.64625, 0.65575, 0.67075, 1)
ground_horizon_color = Color(0.64625, 0.65575, 0.67075, 1)

[sub_resource type="Sky" id="Sky_nbgh5"]
sky_material = SubResource("ProceduralSkyMaterial_cj5sp")

[sub_resource type="Environment" id="Environment_a2sxu"]
background_mode = 2
sky = SubResource("Sky_nbgh5")
tonemap_mode = 2
glow_enabled = true

[node name="DebugSceneTools" type="Node3D"]

[node name="DirectionalLight3D" type="DirectionalLight3D" parent="."]
transform = Transform3D(-0.866023, -0.433016, 0.250001, 0, 0.499998, 0.866027, -0.500003, 0.749999, -0.43301, 0, 0, 0)
shadow_enabled = true

[node name="WorldEnvironment" type="WorldEnvironment" parent="."]
environment = SubResource("Environment_a2sxu")

[node name="DebugCamera" parent="." instance=ExtResource("1_2cagm")]
transform = Transform3D(-1, 0, -1.50996e-07, 0, 1, 0, 1.50996e-07, 0, -1, 0, 0, 0)
