[gd_scene load_steps=46 format=3 uid="uid://csi6321ev17f8"]

[ext_resource type="Script" path="res://levels/level_scene.gd" id="1_axl53"]
[ext_resource type="PackedScene" uid="uid://c4we2b5qyutcd" path="res://levels/level_landscape01/placer-session_items/placer-gameplay_elements/placer_ammo_pickup_high.tscn" id="2_keqpg"]
[ext_resource type="PackedScene" uid="uid://dtchgk0kb57n4" path="res://levels/level_landscape01/placer-session_items/placer-gameplay_elements/placer_ammo_pickup_low.tscn" id="3_pe0js"]
[ext_resource type="PackedScene" uid="uid://b2w7ibwrwbm5y" path="res://levels/level_landscape01/placer-session_items/placer-gameplay_elements/placer_boost_zone.tscn" id="4_jytmh"]
[ext_resource type="PackedScene" uid="uid://c16dkk58a4aag" path="res://levels/level_landscape01/placer-session_items/placer-gameplay_elements/placer_coin_zone_bronze.tscn" id="5_wkmwq"]
[ext_resource type="PackedScene" uid="uid://dmqw4aala5s4c" path="res://levels/level_landscape01/placer-session_items/placer-gameplay_elements/placer_coin_zone_gold.tscn" id="6_3q6nw"]
[ext_resource type="PackedScene" uid="uid://d2whxav3coxey" path="res://levels/level_landscape01/placer-session_items/placer-gameplay_elements/placer_coin_zone_silver.tscn" id="7_ipomn"]
[ext_resource type="PackedScene" uid="uid://ffcyc751hufo" path="res://levels/level_landscape01/placer-session_items/placer-gameplay_elements/placer_health_pickup_high.tscn" id="8_mahiw"]
[ext_resource type="PackedScene" uid="uid://du200ggyvcrfq" path="res://levels/level_landscape01/placer-session_items/placer-gameplay_elements/placer_health_pickup_low.tscn" id="9_ghvlt"]
[ext_resource type="PackedScene" uid="uid://d4kkqv0j52q7r" path="res://levels/level_landscape01/placer-session_items/placer-scene_elements/placer_platform.tscn" id="10_w50fa"]
[ext_resource type="PackedScene" uid="uid://6wt46di7draq" path="res://levels/level_landscape01/placer-session_items/placer-scene_elements/placer_turret_bullet_high.tscn" id="11_w8nms"]
[ext_resource type="PackedScene" uid="uid://7srbdeatw43n" path="res://levels/level_landscape01/placer-session_items/placer-scene_elements/placer_turret_bullet_low.tscn" id="12_csnxb"]
[ext_resource type="PackedScene" uid="uid://c42rjek1vichy" path="res://levels/level_landscape01/placer-session_items/placer-scene_elements/placer_turret_raycast_high.tscn" id="13_avxoo"]
[ext_resource type="PackedScene" uid="uid://dtvwjwsn1diqv" path="res://levels/level_landscape01/placer-session_items/placer-scene_elements/placer_turret_raycast_low.tscn" id="14_keocc"]
[ext_resource type="PackedScene" uid="uid://c45hf6nffnve1" path="res://levels/level_landscape01/placer-session_items/placer-gameplay_elements/placer_blast_zone.tscn" id="15_0ldj2"]
[ext_resource type="PackedScene" uid="uid://cypfeai6eusb8" path="res://levels/level_landscape01/placer-session_items/placer-vehicle_ai_steering_drivers_sp/placer_steering_driver_bus_ai_steering_pipeline_1.tscn" id="16_rac7u"]
[ext_resource type="PackedScene" uid="uid://wlt1xk4kivyw" path="res://levels/level_landscape01/placer-session_items/placer-vehicle_ai_steering_drivers_sp/placer_steering_driver_car_01ai_steering_pipeline_1.tscn" id="18_jpyk8"]
[ext_resource type="PackedScene" uid="uid://60ixtftx7f10" path="res://levels/level_landscape01/placer-session_items/placer-vehicle_ai_steering_drivers_sp/placer_steering_driver_pickup_ai_steering_pipeline_1.tscn" id="20_vxms8"]
[ext_resource type="PackedScene" uid="uid://dojs30e48nj0p" path="res://levels/level_landscape01/placer-session_items/placer-vehicle_ai_steering_drivers_sp/placer_steering_driver_sedan_ai_steering_pipeline_1.tscn" id="22_yp0fm"]
[ext_resource type="PackedScene" uid="uid://cc7vd1wp242s5" path="res://levels/level_landscape01/placer-session_items/placer-vehicle_ai_steering_drivers_sp/placer_steering_driver_wagon_ai_steering_pipeline_1.tscn" id="24_4ljmy"]
[ext_resource type="PackedScene" uid="uid://dsinrixnt7xh0" path="res://levels/elements_scene/world_environment.tscn" id="26_v6ni0"]
[ext_resource type="PackedScene" uid="uid://b8orfj24frll0" path="res://levels/elements_scene/directional_light.tscn" id="27_6f5so"]
[ext_resource type="PackedScene" uid="uid://b5yjvylfpf4vh" path="res://gui/hud.tscn" id="28_i3h2r"]
[ext_resource type="PackedScene" uid="uid://b25086k0mwxh0" path="res://levels/elements/display_fade_animation.tscn" id="29_one1u"]
[ext_resource type="PackedScene" uid="uid://djy1dfcg5kplp" path="res://levels/elements_scene/instance_pos.tscn" id="30_w8x0q"]
[ext_resource type="Shader" path="res://assets/shaders/landscape.gdshader" id="32_feio2"]
[ext_resource type="PackedScene" uid="uid://534qvk5cgg6s" path="res://assets/level_environments/landscape01/landscape01-dynamic_navigation.tscn" id="32_ixmjs"]
[ext_resource type="PackedScene" uid="uid://bvibbnqarrm2y" path="res://levels/elements/dead_zone.tscn" id="32_t5tmi"]
[ext_resource type="Texture2D" uid="uid://bhm4dy85ofgrg" path="res://assets/images/environments/environments_Grass 15 - 256x256_albedo.png" id="33_76isf"]
[ext_resource type="Script" path="res://levels/tools/objects_placer.gd" id="33_oi5aq"]
[ext_resource type="Texture2D" uid="uid://b6gg4pucccpxo" path="res://assets/images/environments/environments_jungle_stone_d.png" id="34_5rnka"]
[ext_resource type="PackedScene" uid="uid://c1jpcn5vtyoo7" path="res://assets/level_environments/0-prepared_level_game_objects/end_zone_with_map.tscn" id="34_6b2dm"]
[ext_resource type="Texture2D" uid="uid://d3qwo0vew7g6q" path="res://assets/images/environments/environments_ground_cracks2y_d.png" id="35_0qah4"]
[ext_resource type="Texture2D" uid="uid://bbyjxhks07vb3" path="res://assets/images/environments/landscape01_blend0.png" id="36_hoprk"]
[ext_resource type="Texture2D" uid="uid://cp5ctipsk17sw" path="res://assets/images/environments/landscape01_blend1.png" id="37_7k52g"]
[ext_resource type="Texture2D" uid="uid://c5q83n5m26w1g" path="res://assets/images/environments/landscape01_blend2.png" id="38_gbf4r"]
[ext_resource type="Texture2D" uid="uid://bjediq8u7usfe" path="res://assets/images/environments/environments_Grass 15 - 256x256_normal.png" id="39_vq6xj"]
[ext_resource type="Texture2D" uid="uid://d4bmaerasldk8" path="res://assets/images/environments/environments_jungle_stone_n.png" id="40_k2xmu"]
[ext_resource type="Texture2D" uid="uid://sp60y1wo8070" path="res://assets/images/environments/environments_ground_cracks2_n.png" id="41_weq38"]

[sub_resource type="PhysicsMaterial" id="PhysicsMaterial_jxtit"]
friction = 0.9
bounce = 0.5

[sub_resource type="PhysicsMaterial" id="PhysicsMaterial_vcghn"]

[sub_resource type="ShaderMaterial" id="ShaderMaterial_op4ho"]
render_priority = 0
shader = ExtResource("32_feio2")
shader_parameter/point_size = null
shader_parameter/uv1_scale = Vector3(32, 32, 32)
shader_parameter/uv1_offset = null
shader_parameter/uv2_scale = Vector3(1, 1, 1)
shader_parameter/uv2_offset = null
shader_parameter/texture_albedo1 = ExtResource("33_76isf")
shader_parameter/texture_normal1 = ExtResource("39_vq6xj")
shader_parameter/texture_blend_map1 = ExtResource("36_hoprk")
shader_parameter/texture_albedo2 = ExtResource("34_5rnka")
shader_parameter/texture_normal2 = ExtResource("40_k2xmu")
shader_parameter/texture_blend_map2 = ExtResource("37_7k52g")
shader_parameter/texture_albedo3 = ExtResource("35_0qah4")
shader_parameter/texture_normal3 = ExtResource("41_weq38")
shader_parameter/texture_blend_map3 = ExtResource("38_gbf4r")

[sub_resource type="PhysicsMaterial" id="PhysicsMaterial_0n8iq"]
friction = 0.4
bounce = 0.25

[sub_resource type="PhysicsMaterial" id="PhysicsMaterial_8aaef"]

[sub_resource type="ConcavePolygonShape3D" id="ConcavePolygonShape3D_tw2wi"]
data = PackedVector3Array(-192.713, 28.8377, 86.1814, -120.595, 42.0986, 38.7083, -187.931, 28.8377, 93.4452, -122.849, 42.0745, 22.603, -165.586, 37.4524, 13.7926, -121.052, 42.0745, 13.8857, -118.827, 32.2131, -55.8988, -168.799, 37.4398, 0.573, -173.195, 37.4398, -4.0357, -175.084, 31.8503, -66.3859, -117.888, 32.2035, -72.1215, -118.827, 32.2131, -55.8988, -190.713, 29.0099, 40.6134, -181.954, 37.6487, 17.1444, -184.453, 29.0099, 42.9501, -180.953, 37.8926, -0.9054, -182.136, 32.3127, -11.4108, -173.195, 37.4398, -4.0357, -147.039, 33.3814, -145.753, -179.55, 31.8511, -83.7673, -187.127, 31.8511, -87.7413, -210.11, 53.6672, -179.434, -148.053, 33.5759, -173.317, -151.394, 33.5759, -158.436, -202.494, 31.8576, -14.506, -189.654, 32.3127, -10.5637, -209.707, 28.7988, 34.9925, -218.779, 53.774, -134.004, -194.954, 32.1524, -86.6853, -202.26, 32.1524, -84.2591, -144.352, 42.2561, 139.326, -200.491, 28.8733, 106.388, -140.71, 42.2561, 133.119, -224.444, 53.5142, -132.825, -215.888, 28.8338, 34.9652, -222.004, 28.8338, 35.2769, -150.656, 37.3829, -231.496, -212.092, 53.5674, -192.662, -216.215, 53.5674, -199.184, -108.28, 38.6299, -6.0951, -107.811, 32.2475, -48.7276, -101.809, 32.2484, -48.0375, -133.885, 42.1741, 134.9, -115.814, 42.0985, 45.9722, -126.363, 42.1741, 137.084, -15.2834, 40.5158, 99.4853, -10.9718, 41.8192, 96.9154, -11.0138, 41.0955, 105.42, -11.2191, 46.719, 64.5509, -7.9173, 41.767, 90.6163, -15.2019, 41.8192, 89.8183, 202.668, 49.5791, 96.5551, 190.423, 49.0804, 100.499, 193.808, 49.0993, 87.3283, 130.968, 45.1326, 90.7589, 156.622, 47.9838, 86.5028, 132.602, 45.5527, 98.2164, 2.2693, 46.6483, 50.289, 4.6239, 46.719, 67.529, -1.9969, 46.6429, 59.1205, 109.668, 47.8112, 65.7472, 122.473, 45.1345, 85.4829, 118.285, 45.9967, 87.8765, 161.308, 47.9824, 79.7797, 183.528, 39.4872, 3.0404, 168.05, 47.9644, 81.2743, 102.868, 47.8133, 48.8703, 91.2364, 52.7202, 9.0926, 109.627, 47.8133, 46.8939, 87.7786, 53.1949, 2.9365, 77.3849, 45.7142, -5.6473, 81.3356, 45.7142, -10.431, -9.8503, 46.6483, 53.2451, 2.2693, 46.6483, 50.289, -1.9969, 46.6429, 59.1205, -99.8286, 42.0772, 34.0447, -63.6496, 49.9853, 100.314, -71.604, 49.9853, 104.657, 94.2224, 52.7425, 2.2171, 152.616, 41.9068, -32.3982, 97.9951, 52.7202, 7.1162, 182.333, 39.4754, -5.0551, 162.307, 41.8675, -30.9959, 187.326, 39.4754, -8.9098, 23.9144, 44.9079, -26.268, -8.8139, 44.2054, 4.8498, -18.2031, 44.2004, -10.4381, 31.4434, 44.9075, -26.1539, 65.436, 45.2119, -13.1395, 28.6114, 44.9079, -18.7423, -18.2031, 44.2004, -10.4381, -100.412, 52.7158, -14.2263, -99.0477, 52.7158, -22.8381, 154.355, 41.0572, -62.3894, 158.65, 41.859, -36.5766, 149.253, 41.9068, -38.0703, 73.8251, 45.3292, -16.1947, 111.965, 26.7833, -80.5888, 79.8804, 45.3292, -12.6082, 125.454, 26.7275, -96.7998, 121.757, 26.6664, -89.1523, 121.92, 26.6664, -96.8744, 160.053, 41.4316, -67.5447, 135.118, 27.1034, -85.3561, 139.413, 27.1034, -91.368, -71.5166, 28.4669, -110.354, -94.6838, 30.0115, -74.0442, -105.512, 30.0115, -83.9072, -58.5031, 28.5891, -113.914, 23.5349, 49.6326, -107.832, -59.1639, 28.5891, -105, 22.8741, 49.6326, -98.9186, 26.8021, 44.9175, -34.8028, 19.2173, 44.9079, -33.7937, 229.956, 50.0817, -106.042, 169.417, 41.0864, -67.4197, 164.347, 41.4316, -73.5566, 40.6139, 48.4376, -123.148, 32.0971, 49.5202, -112.332, 27.0955, 49.5202, -116.27, 49.2116, 48.6071, -127.851, 109.802, 26.8476, -93.3978, 45.6154, 48.4376, -119.21, -77.6358, 45.1425, -165.743, -67.8423, 28.7414, -124.189, -76.8253, 28.7414, -124.015, -89.4777, 38.5408, -186.371, -73.3892, 45.0384, -170.477, -92.6706, 38.5408, -179.684, 41.4752, 49.2762, -144.451, 47.0668, 48.4601, -137.303, 40.4793, 48.4601, -138.385, 52.8328, 49.3077, -152.169, 64.2837, 52.656, -166.272, 58.8587, 49.3077, -147.276, -42.7739, 51.601, -205.028, -64.8233, 44.9233, -171.96, -70.1962, 45.0384, -177.164, -27.8336, 51.5446, -197.775, 42.6071, 49.2429, -151.053, -30.9059, 51.601, -192.678, 72.5318, 52.6045, -169.808, 146.923, 46.0627, -183.97, 74.0901, 52.6045, -161.623, 132.064, 26.8324, -95.7729, 155.499, 46.1534, -174.82, 138.484, 26.8324, -93.8695, 161.122, 47.9303, -197.189, 161.292, 46.2781, -187.65, 157.099, 46.2781, -194.843, 234.759, 50.0515, -109.904, 173.605, 47.7012, -186.213, 239.95, 50.0514, -114.063, 253.655, 53.2828, -107.964, 243.676, 50.3037, -101.861, 245.982, 50.3037, -110.109, 249.301, 38.3241, -14.4753, 189.404, 39.4655, -2.144, 187.326, 39.4754, -8.9098, 202.668, 49.5791, 96.5551, 250.66, 57.3113, 97.3612, 202.547, 49.5954, 103.509, -39.2943, 49.3078, -250.194, -33.6301, 51.5482, -205.651, -42.7739, 51.601, -205.028, 52.3887, 55.4913, -250.154, 64.7346, 52.5928, -177.106, 58.1835, 52.5928, -175.998, -106.267, 41.729, -215.554, -96.7945, 38.3926, -186.632, -103.012, 38.3926, -185.948, 178.581, 45.7123, -251.975, 170.03, 47.7026, -195.95, 161.122, 47.9303, -197.189, 118.077, 30.5215, 249.878, 128.252, 31.0388, 217.173, 126.437, 30.5215, 252.479, 193.887, 43.1871, 174.852, 135.277, 31.0993, 211.254, 131.767, 31.0993, 203.694, 91.1874, 47.5647, 166.011, 124.603, 31.2215, 206.637, 118.7, 31.2215, 210.303, 48.9611, 50.3406, 249.616, -11.6701, 60.2545, 176.355, 53.8474, 50.3406, 245.572, -16.4524, 60.6969, 171.352, -10.9175, 47.7325, 147.468, -6.7837, 60.2545, 172.311, -0.2178, 47.2685, 139.52, 91.3308, 47.3816, 158.46, -2.3243, 47.7325, 149.459, -27.1005, 41.6753, 109.687, -63.6496, 49.9853, 100.314, -55.6953, 49.9853, 95.9715, -90.7232, 54.9829, 245.419, -21.1067, 60.2387, 176.202, -85.767, 54.9829, 249.775, -19.0374, 41.6753, 106.972, -9.9002, 47.3446, 134.117, -17.9633, 47.3447, 136.832, 251.981, 46.5995, 200.496, 205.336, 43.1361, 183.647, 208.465, 43.1361, 177.679, -196.849, 28.8733, 100.181, -192.713, 28.8377, 86.1814, -187.931, 28.8377, 93.4452, -200.491, 28.8733, 106.388, -204.133, 28.8733, 112.595, -212.608, 28.7913, 99.2781, -212.608, 28.7913, 99.2781, -222.004, 28.8338, 35.2769, -215.888, 28.8338, 34.9652, -16.4524, 60.6969, 171.352, -21.1067, 60.2387, 176.202, -25.0455, 60.6968, 169.36, -197.494, 28.8377, 78.9176, -196.973, 29.0099, 38.2767, -190.713, 29.0099, 40.6134, -102.412, 42.0971, 17.1218, -96.2895, 42.0971, 17.1785, -102.502, 42.0522, 26.7978, -102.502, 42.0522, 26.7978, -107.783, 42.0772, 38.3873, -115.814, 42.0985, 45.9722, -175.694, 37.6487, 19.4809, -165.586, 37.4524, 13.7926, -167.383, 37.4524, 22.51, -187.125, 37.4301, 11.8894, -181.954, 37.6487, 17.1444, -188.214, 37.6487, 14.8079, -179.623, 37.4301, 10.8987, -188.471, 37.8926, -0.0585, -180.953, 37.8926, -0.9054, -209.707, 28.7988, 34.9925, -203.374, 28.7988, 35.9151, -196.973, 29.0099, 38.2767, -101.809, 32.2484, -48.0375, -94.8143, 32.2035, -64.8311, -94.7882, 32.2484, -47.9725, -179.83, 31.8502, -58.5245, -175.084, 31.8503, -66.3859, -175.403, 31.8503, -58.3485, -188.389, 31.8502, -66.9151, -202.26, 32.1524, -84.2591, -194.954, 32.1524, -86.6853, -174.764, 31.8503, -74.4234, -179.55, 31.8511, -83.7673, -171.973, 31.8511, -79.7933, -151.394, 33.5759, -158.436, -147.039, 33.3814, -145.753, -154.615, 33.3814, -149.727, -148.053, 33.5759, -173.317, -129.026, 33.3804, -172.737, -137.878, 33.3804, -163.218, -215.445, 53.4717, -172.816, -210.11, 53.6672, -179.434, -211.78, 53.6672, -171.994, -227.014, 53.4717, -183.229, -216.215, 53.5674, -199.184, -212.092, 53.5674, -192.662, -150.656, 37.3829, -231.496, -154.779, 37.3829, -238.018, -136.878, 37.2873, -240.205, -163.789, 37.4524, 5.0752, -179.623, 37.4301, 10.8987, -173.195, 37.4398, -4.0357, -1.9969, 46.6429, 59.1205, -11.2191, 46.719, 64.5509, -9.8503, 46.6483, 53.2451, -3.5671, 41.6908, 98.7487, -6.7418, 41.8192, 104.012, -10.9718, 41.8192, 96.9154, 159.499, 47.96, 86.0254, 168.05, 47.9644, 81.2743, 166.476, 47.9803, 87.719, 191.745, 45.0422, 132.333, 200.098, 43.1302, 174.687, 193.887, 43.1871, 174.852, 91.1874, 47.5647, 166.011, 95.1705, 47.3816, 159.255, 102.993, 47.5647, 158.678, 122.473, 45.1345, 85.4829, 129.565, 45.1326, 82.3044, 124.452, 45.1088, 94.6489, 106.274, 47.7856, 60.516, 109.668, 47.8112, 65.7472, 104.341, 47.8112, 69.2035, 130.968, 45.1326, 90.7589, 132.602, 45.5527, 98.2164, 124.452, 45.1088, 94.6489, 83.8279, 53.1949, 7.7201, 91.2364, 52.7202, 9.0926, 84.4778, 52.7202, 11.0689, 184.907, 39.4648, -1.7222, 187.326, 39.4754, -8.9098, 189.404, 39.4655, -2.144, 70.7993, 45.2117, -11.0861, 81.3356, 45.7142, -10.431, 77.3849, 45.7142, -5.6473, 158.65, 41.859, -36.5766, 167.3, 41.8675, -34.8506, 162.307, 41.8675, -30.9959, 163.998, 41.055, -64.7261, 164.347, 41.4316, -73.5566, 169.417, 41.0864, -67.4197, 128.096, 26.7269, -81.2929, 135.118, 27.1034, -85.3561, 130.824, 27.1034, -79.3442, 117.095, 26.6659, -89.2507, 121.92, 26.6664, -96.8744, 121.757, 26.6664, -89.1523, -67.6559, 28.4643, -114.592, -67.8423, 28.7414, -124.189, -57.8422, 28.5891, -122.828, -66.0756, 28.4669, -105.398, -58.5031, 28.5891, -113.914, -59.1639, 28.5891, -105, 27.0955, 49.5202, -116.27, 23.5349, 49.6326, -107.832, 24.1956, 49.6326, -116.746, 34.4468, 49.5078, -105.026, 32.0971, 49.5202, -112.332, 37.0987, 49.5202, -108.394, 28.2772, 49.5078, -107.481, 28.1082, 49.518, -99.1508, 22.8741, 49.6326, -98.9186, 240.491, 50.0503, -102.751, 245.982, 50.3037, -110.109, 243.676, 50.3037, -101.861, 39.418, 48.4253, -131.919, 40.6139, 48.4376, -123.148, 35.6124, 48.4376, -127.086, 45.8307, 48.4253, -129.773, 47.0668, 48.4601, -137.303, 53.65, 48.6071, -135.656, -67.6559, 28.4643, -114.592, -66.0756, 28.4669, -105.398, -71.5166, 28.4669, -110.354, 45.8307, 48.4253, -129.773, 53.65, 48.6071, -135.656, 49.2116, 48.6071, -127.851, -92.6706, 38.5408, -179.684, -95.8635, 38.5408, -172.998, -96.217, 38.3678, -181.378, -96.217, 38.3678, -181.378, -103.012, 38.3926, -185.948, -96.7945, 38.3926, -186.632, -64.8233, 44.9233, -171.96, -59.6697, 45.1425, -166.092, -68.6527, 45.1425, -165.917, 48.6644, 49.2414, -147.035, 42.6071, 49.2429, -151.053, 46.8069, 49.3077, -157.062, 54.6502, 49.2762, -142.288, 52.8328, 49.3077, -152.169, 58.8587, 49.3077, -147.276, 48.6644, 49.2414, -147.035, 54.6502, 49.2762, -142.288, 48.0627, 49.2762, -143.37, 66.1725, 52.5897, -168.598, 64.7346, 52.5928, -177.106, 70.9736, 52.6045, -177.994, 70.3096, 52.656, -161.379, 72.5318, 52.6045, -169.808, 74.0901, 52.6045, -161.623, 66.1725, 52.5897, -168.598, 70.3096, 52.656, -161.379, 64.2837, 52.656, -166.272, 146.923, 46.0627, -183.97, 145.365, 46.0627, -192.156, 158.887, 46.0479, -186.248, -33.8262, 51.5431, -201.749, -24.1815, 51.5446, -203.281, -27.8336, 51.5446, -197.775, 158.887, 46.0479, -186.248, 155.499, 46.1534, -174.82, 148.482, 46.0627, -175.784, 168.899, 47.7001, -192.085, 173.605, 47.7012, -186.213, 169.51, 47.9303, -182.802, 158.887, 46.0479, -186.248, 157.099, 46.2781, -194.843, 161.292, 46.2781, -187.65, 129.218, 31.0384, 214.067, 124.603, 31.2215, 206.637, 131.767, 31.0993, 203.694, 129.218, 31.0384, 214.067, 136.612, 31.0388, 219.774, 128.252, 31.0388, 217.173, 129.218, 31.0384, 214.067, 131.767, 31.0993, 203.694, 135.277, 31.0993, 211.254, 102.993, 47.5647, 158.678, 98.0379, 47.4635, 154.009, 103.843, 47.3816, 156.265, 200.358, 43.1262, 181.037, 208.465, 43.1361, 177.679, 205.336, 43.1361, 183.647, -17.9633, 47.3447, 136.832, -10.9175, 47.7325, 147.468, -19.5106, 47.7324, 145.476, 200.098, 43.1302, 174.687, 200.358, 43.1262, 181.037, 193.887, 43.1871, 174.852, -8.6703, 47.2685, 137.771, -0.2178, 47.2685, 139.52, -2.3243, 47.7325, 149.459, -102.502, 42.0522, 26.7978, -122.849, 42.0745, 22.603, -108.535, 42.0971, 17.0651, -108.564, 32.2475, -48.7603, -101.667, 32.2035, -63.4665, -94.8143, 32.2035, -64.8311, -196.161, 31.8576, -13.5834, -195.358, 31.8502, -63.4733, -179.83, 31.8502, -58.5245, -137.878, 33.3804, -163.218, -129.026, 33.3804, -172.737, -139.438, 32.2035, -141.526, -218.779, 53.774, -134.004, -215.445, 53.4717, -172.816, -204.167, 53.774, -138.856, -129.026, 33.3804, -172.737, -148.053, 33.5759, -173.317, -146.533, 37.3829, -224.973, -131.607, 42.1741, 155.148, -147.993, 42.2561, 145.533, -133.885, 42.1741, 134.9, -7.9173, 41.767, 90.6163, 0.0041, 41.767, 92.1053, -10.9718, 41.8192, 96.9154, 161.308, 47.9824, 79.7797, 159.499, 47.96, 86.0254, 155.219, 47.9838, 78.0483, 96.0574, 47.7859, 69.4729, 106.274, 47.7856, 60.516, 104.341, 47.8112, 69.2035, 177.07, 39.4872, 1.1705, 184.907, 39.4648, -1.7222, 189.985, 39.4872, 4.9102, 89.9641, 52.6925, 4.7414, 94.2224, 52.7425, 2.2171, 97.9951, 52.7202, 7.1162, 62.5808, 45.2119, -5.682, 70.7993, 45.2117, -11.0861, 73.4342, 45.7142, -0.8636, -20.9335, 44.2054, 7.806, -18.2031, 44.2004, -10.4381, -8.8139, 44.2054, 4.8498, 158.65, 41.859, -36.5766, 155.978, 41.9068, -26.7262, 149.253, 41.9068, -38.0703, 19.2173, 44.9079, -33.7937, 31.4434, 44.9075, -26.1539, 28.6114, 44.9079, -18.7423, 160.053, 41.4316, -67.5447, 163.998, 41.055, -64.7261, 154.355, 41.0572, -62.3894, 118.02, 26.7833, -77.0023, 117.095, 26.6659, -89.2507, 121.594, 26.6665, -81.4302, 125.128, 26.7275, -81.3556, 130.049, 26.7269, -88.9772, 128.096, 26.7269, -81.2929, 240.491, 50.0503, -102.751, 234.759, 50.0515, -109.904, 242.293, 50.0503, -111.14, -73.3892, 45.0384, -170.477, -70.1962, 45.0384, -177.164, -68.6527, 45.1425, -165.917, -33.6301, 51.5482, -205.651, -33.8262, 51.5431, -201.749, -42.7739, 51.601, -205.028, 161.122, 47.9303, -197.189, 168.899, 47.7001, -192.085, 169.51, 47.9303, -182.802, -8.6703, 47.2685, 137.771, -17.9633, 47.3447, 136.832, -9.9002, 47.3446, 134.117, -139.438, 32.2035, -141.526, -129.026, 33.3804, -172.737, -105.512, 30.0115, -83.9072, -19.0374, 41.6753, 106.972, -15.2834, 40.5158, 99.4853, -11.0138, 41.0955, 105.42, 114.423, 40.4399, 124.193, 124.452, 45.1088, 94.6489, 132.602, 45.5527, 98.2164, 114.423, 40.4399, 124.193, 98.0379, 47.4635, 154.009, 93.0105, 47.3816, 150.341, 191.745, 45.0422, 132.333, 190.423, 49.0804, 100.499, 202.547, 49.5954, 103.509, 193.808, 49.0993, 87.3283, 166.476, 47.9803, 87.719, 168.05, 47.9644, 81.2743, -93.8307, 41.729, -216.921, -106.267, 41.729, -215.554, -130.798, 36.3965, -234.581, -130.798, 36.3965, -234.581, -146.533, 37.3829, -224.973, -136.878, 37.2873, -240.205, -113.873, 32.2175, -164.871, -105.512, 30.0115, -83.9072, -129.026, 33.3804, -172.737, -117.888, 32.2035, -72.1215, -117.412, 32.2458, -80.851, -105.512, 30.0115, -83.9072, -94.8143, 32.2035, -64.8311, -101.667, 32.2035, -63.4665, -103.271, 32.2035, -69.3054, -103.271, 32.2035, -69.3054, -105.512, 30.0115, -83.9072, -94.6838, 30.0115, -74.0442, -105.512, 30.0115, -83.9072, -103.271, 32.2035, -69.3054, -117.888, 32.2035, -72.1215, -117.888, 32.2035, -72.1215, -103.271, 32.2035, -69.3054, -101.667, 32.2035, -63.4665, -96.2895, 42.0971, 17.1785, -102.412, 42.0971, 17.1218, -102.2, 38.6296, -5.8194, -102.2, 38.6296, -5.8194, -102.412, 42.0971, 17.1218, -108.535, 42.0971, 17.0651, -101.809, 32.2484, -48.0375, -94.7882, 32.2484, -47.9725, -102.2, 38.6296, -5.8194, -187.931, 28.8377, 93.4452, -120.595, 42.0986, 38.7083, -115.814, 42.0985, 45.9722, -120.595, 42.0986, 38.7083, -192.713, 28.8377, 86.1814, -125.377, 42.0986, 31.4444, -125.377, 42.0986, 31.4444, -192.713, 28.8377, 86.1814, -197.494, 28.8377, 78.9176, -121.052, 42.0745, 13.8857, -165.586, 37.4524, 13.7926, -163.789, 37.4524, 5.0752, -165.586, 37.4524, 13.7926, -125.377, 42.0986, 31.4444, -167.383, 37.4524, 22.51, -125.377, 42.0986, 31.4444, -165.586, 37.4524, 13.7926, -122.849, 42.0745, 22.603, -163.789, 37.4524, 5.0752, -168.799, 37.4398, 0.573, -110.034, 32.2131, -46.6813, -110.034, 32.2131, -46.6813, -168.799, 37.4398, 0.573, -118.827, 32.2131, -55.8988, -117.888, 32.2035, -72.1215, -175.084, 31.8503, -66.3859, -174.764, 31.8503, -74.4234, -175.084, 31.8503, -66.3859, -118.827, 32.2131, -55.8988, -175.403, 31.8503, -58.3485, -184.453, 29.0099, 42.9501, -181.954, 37.6487, 17.1444, -175.694, 37.6487, 19.4809, -181.954, 37.6487, 17.1444, -196.973, 29.0099, 38.2767, -188.214, 37.6487, 14.8079, -196.973, 29.0099, 38.2767, -181.954, 37.6487, 17.1444, -190.713, 29.0099, 40.6134, -173.195, 37.4398, -4.0357, -182.136, 32.3127, -11.4108, -174.618, 32.3126, -12.2579, -182.136, 32.3127, -11.4108, -180.953, 37.8926, -0.9054, -189.654, 32.3127, -10.5637, -189.654, 32.3127, -10.5637, -180.953, 37.8926, -0.9054, -188.471, 37.8926, -0.0585, -171.973, 31.8511, -79.7933, -179.55, 31.8511, -83.7673, -139.438, 32.2035, -141.526, -139.438, 32.2035, -141.526, -179.55, 31.8511, -83.7673, -147.039, 33.3814, -145.753, -147.039, 33.3814, -145.753, -187.127, 31.8511, -87.7413, -154.615, 33.3814, -149.727, -148.053, 33.5759, -173.317, -210.11, 53.6672, -179.434, -208.439, 53.6672, -186.875, -210.11, 53.6672, -179.434, -151.394, 33.5759, -158.436, -211.78, 53.6672, -171.994, -196.973, 29.0099, 38.2767, -203.374, 28.7988, 35.9151, -189.654, 32.3127, -10.5637, -189.654, 32.3127, -10.5637, -202.494, 31.8576, -14.506, -196.161, 31.8576, -13.5834, -203.374, 28.7988, 35.9151, -209.707, 28.7988, 34.9925, -189.654, 32.3127, -10.5637, -187.127, 31.8511, -87.7413, -194.954, 32.1524, -86.6853, -204.167, 53.774, -138.856, -204.167, 53.774, -138.856, -194.954, 32.1524, -86.6853, -211.473, 53.774, -136.43, -211.473, 53.774, -136.43, -194.954, 32.1524, -86.6853, -218.779, 53.774, -134.004, -140.71, 42.2561, 133.119, -200.491, 28.8733, 106.388, -196.849, 28.8733, 100.181, -200.491, 28.8733, 106.388, -144.352, 42.2561, 139.326, -204.133, 28.8733, 112.595, -204.133, 28.8733, 112.595, -144.352, 42.2561, 139.326, -147.993, 42.2561, 145.533, -209.707, 28.7988, 34.9925, -224.444, 53.5142, -132.825, -218.779, 53.774, -134.004, -224.444, 53.5142, -132.825, -222.004, 28.8338, 35.2769, -230.56, 53.5142, -132.513, -215.888, 28.8338, 34.9652, -224.444, 53.5142, -132.825, -209.707, 28.7988, 34.9925, -208.439, 53.6672, -186.875, -150.656, 37.3829, -231.496, -146.533, 37.3829, -224.973, -150.656, 37.3829, -231.496, -216.215, 53.5674, -199.184, -154.779, 37.3829, -238.018, -212.092, 53.5674, -192.662, -150.656, 37.3829, -231.496, -208.439, 53.6672, -186.875, -108.28, 38.6299, -6.0951, -101.809, 32.2484, -48.0375, -102.2, 38.6296, -5.8194, -126.363, 42.1741, 137.084, -115.814, 42.0985, 45.9722, -104.94, 42.0663, 43.759, -104.94, 42.0663, 43.759, -115.814, 42.0985, 45.9722, -107.783, 42.0772, 38.3873, -115.814, 42.0985, 45.9722, -133.885, 42.1741, 134.9, -140.71, 42.2561, 133.119, -11.0138, 41.0955, 105.42, -10.9718, 41.8192, 96.9154, -6.7418, 41.8192, 104.012, -10.9718, 41.8192, 96.9154, -15.2834, 40.5158, 99.4853, -15.2019, 41.8192, 89.8183, -15.2019, 41.8192, 89.8183, -15.2834, 40.5158, 99.4853, -19.5135, 40.5158, 92.3882, 0.0041, 41.767, 92.1053, -7.9173, 41.767, 90.6163, 4.6239, 46.719, 67.529, 4.6239, 46.719, 67.529, -11.2191, 46.719, 64.5509, -1.9969, 46.6429, 59.1205, -7.9173, 41.767, 90.6163, -11.2191, 46.719, 64.5509, 4.6239, 46.719, 67.529, 190.423, 49.0804, 100.499, 202.668, 49.5791, 96.5551, 202.547, 49.5954, 103.509, 202.668, 49.5791, 96.5551, 193.808, 49.0993, 87.3283, 204.319, 49.5624, 89.7987, 132.602, 45.5527, 98.2164, 156.622, 47.9838, 86.5028, 158.024, 47.9838, 94.9572, 156.622, 47.9838, 86.5028, 129.565, 45.1326, 82.3044, 155.219, 47.9838, 78.0483, 129.565, 45.1326, 82.3044, 156.622, 47.9838, 86.5028, 130.968, 45.1326, 90.7589, 4.6239, 46.719, 67.529, 96.1745, 47.7859, 60.3858, 96.0574, 47.7859, 69.4729, 96.1745, 47.7859, 60.3858, 4.6239, 46.719, 67.529, 96.2915, 47.7859, 51.2988, 96.2915, 47.7859, 51.2988, 4.6239, 46.719, 67.529, 2.2693, 46.6483, 50.289, 129.565, 45.1326, 82.3044, 122.473, 45.1345, 85.4829, 114.995, 47.8112, 62.291, 114.995, 47.8112, 62.291, 122.473, 45.1345, 85.4829, 109.668, 47.8112, 65.7472, 109.668, 47.8112, 65.7472, 118.285, 45.9967, 87.8765, 104.341, 47.8112, 69.2035, 168.05, 47.9644, 81.2743, 183.528, 39.4872, 3.0404, 189.985, 39.4872, 4.9102, 183.528, 39.4872, 3.0404, 155.219, 47.9838, 78.0483, 177.07, 39.4872, 1.1705, 155.219, 47.9838, 78.0483, 183.528, 39.4872, 3.0404, 161.308, 47.9824, 79.7797, 109.627, 47.8133, 46.8939, 91.2364, 52.7202, 9.0926, 97.9951, 52.7202, 7.1162, 91.2364, 52.7202, 9.0926, 102.868, 47.8133, 48.8703, 84.4778, 52.7202, 11.0689, 84.4778, 52.7202, 11.0689, 102.868, 47.8133, 48.8703, 96.2915, 47.7859, 51.2988, 73.4342, 45.7142, -0.8636, 77.3849, 45.7142, -5.6473, 83.8279, 53.1949, 7.7201, 83.8279, 53.1949, 7.7201, 77.3849, 45.7142, -5.6473, 87.7786, 53.1949, 2.9365, 87.7786, 53.1949, 2.9365, 81.3356, 45.7142, -10.431, 91.7293, 53.1949, -1.8472, 2.2693, 46.6483, 50.289, -20.9335, 44.2054, 7.806, -8.8139, 44.2054, 4.8498, -20.9335, 44.2054, 7.806, 2.2693, 46.6483, 50.289, -9.8503, 46.6483, 53.2451, -55.6953, 49.9853, 95.9715, -63.6496, 49.9853, 100.314, -91.8742, 42.0772, 29.7021, -91.8742, 42.0772, 29.7021, -63.6496, 49.9853, 100.314, -99.8286, 42.0772, 34.0447, -99.8286, 42.0772, 34.0447, -71.604, 49.9853, 104.657, -107.783, 42.0772, 38.3873, 97.9951, 52.7202, 7.1162, 152.616, 41.9068, -32.3982, 155.978, 41.9068, -26.7262, 152.616, 41.9068, -32.3982, 94.2224, 52.7425, 2.2171, 149.253, 41.9068, -38.0703, 149.253, 41.9068, -38.0703, 94.2224, 52.7425, 2.2171, 91.7293, 53.1949, -1.8472, 187.326, 39.4754, -8.9098, 162.307, 41.8675, -30.9959, 167.3, 41.8675, -34.8506, 162.307, 41.8675, -30.9959, 182.333, 39.4754, -5.0551, 155.978, 41.9068, -26.7262, 155.978, 41.9068, -26.7262, 182.333, 39.4754, -5.0551, 177.07, 39.4872, 1.1705, -8.8139, 44.2054, 4.8498, 23.9144, 44.9079, -26.268, 28.6114, 44.9079, -18.7423, 23.9144, 44.9079, -26.268, -18.2031, 44.2004, -10.4381, 19.2173, 44.9079, -33.7937, 28.6114, 44.9079, -18.7423, 65.436, 45.2119, -13.1395, 62.5808, 45.2119, -5.682, 65.436, 45.2119, -13.1395, 34.2986, 44.9075, -33.6115, 68.2913, 45.2119, -20.5971, 34.2986, 44.9075, -33.6115, 65.436, 45.2119, -13.1395, 31.4434, 44.9075, -26.1539, -101.777, 52.7158, -5.6145, -100.412, 52.7158, -14.2263, -20.9335, 44.2054, 7.806, -20.9335, 44.2054, 7.806, -100.412, 52.7158, -14.2263, -18.2031, 44.2004, -10.4381, 167.3, 41.8675, -34.8506, 158.65, 41.859, -36.5766, 172.113, 41.0572, -59.0153, 172.113, 41.0572, -59.0153, 158.65, 41.859, -36.5766, 163.234, 41.0572, -60.7023, 163.234, 41.0572, -60.7023, 158.65, 41.859, -36.5766, 154.355, 41.0572, -62.3894, 79.8804, 45.3292, -12.6082, 111.965, 26.7833, -80.5888, 118.02, 26.7833, -77.0023, 111.965, 26.7833, -80.5888, 68.2913, 45.2119, -20.5971, 105.91, 26.7833, -84.1753, 68.2913, 45.2119, -20.5971, 111.965, 26.7833, -80.5888, 73.8251, 45.3292, -16.1947, 121.594, 26.6665, -81.4302, 121.757, 26.6664, -89.1523, 125.128, 26.7275, -81.3556, 125.128, 26.7275, -81.3556, 121.757, 26.6664, -89.1523, 125.291, 26.7275, -89.0777, 125.291, 26.7275, -89.0777, 121.757, 26.6664, -89.1523, 125.454, 26.7275, -96.7998, 130.824, 27.1034, -79.3442, 135.118, 27.1034, -85.3561, 154.355, 41.0572, -62.3894, 154.355, 41.0572, -62.3894, 135.118, 27.1034, -85.3561, 160.053, 41.4316, -67.5447, 160.053, 41.4316, -67.5447, 139.413, 27.1034, -91.368, 164.347, 41.4316, -73.5566, -94.6838, 30.0115, -74.0442, -71.5166, 28.4669, -110.354, -66.0756, 28.4669, -105.398, -71.5166, 28.4669, -110.354, -105.512, 30.0115, -83.9072, -76.9576, 28.4669, -115.31, -59.1639, 28.5891, -105, 23.5349, 49.6326, -107.832, 22.8741, 49.6326, -98.9186, 23.5349, 49.6326, -107.832, -58.5031, 28.5891, -113.914, 24.1956, 49.6326, -116.746, 24.1956, 49.6326, -116.746, -58.5031, 28.5891, -113.914, -57.8422, 28.5891, -122.828, 34.2986, 44.9075, -33.6115, 26.8021, 44.9175, -34.8028, 34.325, 49.518, -99.0245, 34.325, 49.518, -99.0245, 26.8021, 44.9175, -34.8028, 28.1082, 49.518, -99.1508, 28.1082, 49.518, -99.1508, 26.8021, 44.9175, -34.8028, 22.8741, 49.6326, -98.9186, 172.113, 41.0572, -59.0153, 169.417, 41.0864, -67.4197, 236.754, 50.0817, -92.3666, 236.754, 50.0817, -92.3666, 169.417, 41.0864, -67.4197, 233.355, 50.0817, -99.2041, 233.355, 50.0817, -99.2041, 169.417, 41.0864, -67.4197, 229.956, 50.0817, -106.042, 37.0987, 49.5202, -108.394, 40.6139, 48.4376, -123.148, 45.6154, 48.4376, -119.21, 40.6139, 48.4376, -123.148, 27.0955, 49.5202, -116.27, 35.6124, 48.4376, -127.086, 32.0971, 49.5202, -112.332, 40.6139, 48.4376, -123.148, 37.0987, 49.5202, -108.394, 45.6154, 48.4376, -119.21, 109.802, 26.8476, -93.3978, 105.91, 26.7833, -84.1753, 109.802, 26.8476, -93.3978, 53.65, 48.6071, -135.656, 114.24, 26.8476, -101.203, 53.65, 48.6071, -135.656, 109.802, 26.8476, -93.3978, 49.2116, 48.6071, -127.851, -57.8422, 28.5891, -122.828, -67.8423, 28.7414, -124.189, -59.6697, 45.1425, -166.092, -59.6697, 45.1425, -166.092, -67.8423, 28.7414, -124.189, -68.6527, 45.1425, -165.917, -68.6527, 45.1425, -165.917, -67.8423, 28.7414, -124.189, -77.6358, 45.1425, -165.743, -95.8635, 38.5408, -172.998, -92.6706, 38.5408, -179.684, -77.6358, 45.1425, -165.743, -77.6358, 45.1425, -165.743, -92.6706, 38.5408, -179.684, -73.3892, 45.0384, -170.477, -73.3892, 45.0384, -170.477, -89.4777, 38.5408, -186.371, -70.1962, 45.0384, -177.164, 53.65, 48.6071, -135.656, 47.0668, 48.4601, -137.303, 54.6502, 49.2762, -142.288, 54.6502, 49.2762, -142.288, 47.0668, 48.4601, -137.303, 48.0627, 49.2762, -143.37, 48.0627, 49.2762, -143.37, 47.0668, 48.4601, -137.303, 41.4752, 49.2762, -144.451, 58.8587, 49.3077, -147.276, 64.2837, 52.656, -166.272, 70.3096, 52.656, -161.379, 64.2837, 52.656, -166.272, 46.8069, 49.3077, -157.062, 58.2578, 52.656, -171.164, 46.8069, 49.3077, -157.062, 64.2837, 52.656, -166.272, 52.8328, 49.3077, -152.169, -59.6697, 45.1425, -166.092, -64.8233, 44.9233, -171.96, -30.9059, 51.601, -192.678, -30.9059, 51.601, -192.678, -64.8233, 44.9233, -171.96, -36.8399, 51.601, -198.853, -36.8399, 51.601, -198.853, -64.8233, 44.9233, -171.96, -42.7739, 51.601, -205.028, -30.9059, 51.601, -192.678, 42.6071, 49.2429, -151.053, 38.9551, 49.2429, -145.547, 42.6071, 49.2429, -151.053, -24.1815, 51.5446, -203.281, 46.8069, 49.3077, -157.062, -24.1815, 51.5446, -203.281, 42.6071, 49.2429, -151.053, -27.8336, 51.5446, -197.775, 74.0901, 52.6045, -161.623, 146.923, 46.0627, -183.97, 148.482, 46.0627, -175.784, 146.923, 46.0627, -183.97, 72.5318, 52.6045, -169.808, 145.365, 46.0627, -192.156, 145.365, 46.0627, -192.156, 72.5318, 52.6045, -169.808, 70.9736, 52.6045, -177.994, 138.484, 26.8324, -93.8695, 155.499, 46.1534, -174.82, 161.919, 46.1534, -172.917, 155.499, 46.1534, -174.82, 132.064, 26.8324, -95.7729, 148.482, 46.0627, -175.784, 148.482, 46.0627, -175.784, 132.064, 26.8324, -95.7729, 125.454, 26.7275, -96.7998, 165.486, 46.2781, -180.456, 161.292, 46.2781, -187.65, 169.51, 47.9303, -182.802, 169.51, 47.9303, -182.802, 161.292, 46.2781, -187.65, 165.316, 47.9303, -189.995, 165.316, 47.9303, -189.995, 161.292, 46.2781, -187.65, 161.122, 47.9303, -197.189, 239.95, 50.0514, -114.063, 173.605, 47.7012, -186.213, 178.795, 47.7012, -190.373, 173.605, 47.7012, -186.213, 234.759, 50.0515, -109.904, 169.51, 47.9303, -182.802, 169.51, 47.9303, -182.802, 234.759, 50.0515, -109.904, 229.956, 50.0817, -106.042, 241.371, 50.3037, -93.6134, 243.676, 50.3037, -101.861, 249.043, 53.2828, -91.4683, 249.043, 53.2828, -91.4683, 243.676, 50.3037, -101.861, 251.349, 53.2828, -99.7159, 251.349, 53.2828, -99.7159, 243.676, 50.3037, -101.861, 253.655, 53.2828, -107.964, 189.985, 39.4872, 4.9102, 189.404, 39.4655, -2.144, 250.549, 38.3241, -1.1653, 250.549, 38.3241, -1.1653, 189.404, 39.4655, -2.144, 249.925, 38.3241, -7.8203, 249.925, 38.3241, -7.8203, 189.404, 39.4655, -2.144, 249.301, 38.3241, -14.4753, 202.547, 49.5954, 103.509, 250.66, 57.3113, 97.3612, 250.534, 57.3113, 104.636, 250.66, 57.3113, 97.3612, 204.319, 49.5624, 89.7987, 250.787, 57.3113, 90.0864, 204.319, 49.5624, 89.7987, 250.66, 57.3113, 97.3612, 202.668, 49.5791, 96.5551, -25.7473, 51.5482, -205.255, -33.6301, 51.5482, -205.651, -23.5287, 49.3078, -249.402, -23.5287, 49.3078, -249.402, -33.6301, 51.5482, -205.651, -31.4115, 49.3078, -249.798, -31.4115, 49.3078, -249.798, -33.6301, 51.5482, -205.651, -39.2943, 49.3078, -250.194, 70.9736, 52.6045, -177.994, 64.7346, 52.5928, -177.106, 58.9398, 55.4913, -251.261, 58.9398, 55.4913, -251.261, 64.7346, 52.5928, -177.106, 52.3887, 55.4913, -250.154, 52.3887, 55.4913, -250.154, 58.1835, 52.5928, -175.998, 45.8376, 55.4913, -249.047, -89.4777, 38.5408, -186.371, -96.7945, 38.3926, -186.632, -93.8307, 41.729, -216.921, -93.8307, 41.729, -216.921, -96.7945, 38.3926, -186.632, -106.267, 41.729, -215.554, 177.248, 47.7026, -193.838, 170.03, 47.7026, -195.95, 193.018, 45.7123, -247.753, 193.018, 45.7123, -247.753, 170.03, 47.7026, -195.95, 185.8, 45.7123, -249.864, 185.8, 45.7123, -249.864, 170.03, 47.7026, -195.95, 178.581, 45.7123, -251.975, 126.437, 30.5215, 252.479, 128.252, 31.0388, 217.173, 136.612, 31.0388, 219.774, 128.252, 31.0388, 217.173, 118.077, 30.5215, 249.878, 119.892, 31.0388, 214.572, 119.892, 31.0388, 214.572, 118.077, 30.5215, 249.878, 109.717, 30.5215, 247.277, 136.612, 31.0388, 219.774, 135.277, 31.0993, 211.254, 200.907, 43.1871, 189.972, 200.907, 43.1871, 189.972, 135.277, 31.0993, 211.254, 197.397, 43.1871, 182.412, 197.397, 43.1871, 182.412, 135.277, 31.0993, 211.254, 193.887, 43.1871, 174.852, 131.767, 31.0993, 203.694, 124.603, 31.2215, 206.637, 102.993, 47.5647, 158.678, 102.993, 47.5647, 158.678, 124.603, 31.2215, 206.637, 97.0899, 47.5647, 162.345, 97.0899, 47.5647, 162.345, 124.603, 31.2215, 206.637, 91.1874, 47.5647, 166.011, 53.8474, 50.3406, 245.572, -11.6701, 60.2545, 176.355, -6.7837, 60.2545, 172.311, -11.6701, 60.2545, 176.355, 48.9611, 50.3406, 249.616, -16.5564, 60.2545, 180.399, -16.5564, 60.2545, 180.399, 48.9611, 50.3406, 249.616, 44.0748, 50.3406, 253.66, -6.7837, 60.2545, 172.311, -10.9175, 47.7325, 147.468, -2.3243, 47.7325, 149.459, -10.9175, 47.7325, 147.468, -25.0455, 60.6968, 169.36, -19.5106, 47.7324, 145.476, -25.0455, 60.6968, 169.36, -10.9175, 47.7325, 147.468, -16.4524, 60.6969, 171.352, -2.3243, 47.7325, 149.459, 91.3308, 47.3816, 158.46, 91.1874, 47.5647, 166.011, 91.3308, 47.3816, 158.46, -0.2178, 47.2685, 139.52, 93.0105, 47.3816, 150.341, 93.0105, 47.3816, 150.341, -0.2178, 47.2685, 139.52, 1.4618, 47.2685, 131.401, -63.6496, 49.9853, 100.314, -17.9633, 47.3447, 136.832, -71.604, 49.9853, 104.657, -71.604, 49.9853, 104.657, -17.9633, 47.3447, 136.832, -19.5106, 47.7324, 145.476, -17.9633, 47.3447, 136.832, -63.6496, 49.9853, 100.314, -27.1005, 41.6753, 109.687, -80.8107, 54.9829, 254.131, -85.767, 54.9829, 249.775, -16.5564, 60.2545, 180.399, -16.5564, 60.2545, 180.399, -85.767, 54.9829, 249.775, -21.1067, 60.2387, 176.202, -21.1067, 60.2387, 176.202, -90.7232, 54.9829, 245.419, -26.0629, 60.2387, 171.846, -1.837, 47.3446, 131.404, -9.9002, 47.3446, 134.117, -11.0138, 41.0955, 105.42, -11.0138, 41.0955, 105.42, -9.9002, 47.3446, 134.117, -19.0374, 41.6753, 106.972, -19.0374, 41.6753, 106.972, -17.9633, 47.3447, 136.832, -27.1005, 41.6753, 109.687, 200.907, 43.1871, 189.972, 205.336, 43.1361, 183.647, 245.723, 46.5995, 212.432, 245.723, 46.5995, 212.432, 205.336, 43.1361, 183.647, 248.852, 46.5995, 206.464, 248.852, 46.5995, 206.464, 205.336, 43.1361, 183.647, 251.981, 46.5995, 200.496, -197.494, 28.8377, 78.9176, -192.713, 28.8377, 86.1814, -212.608, 28.7913, 99.2781, -212.608, 28.7913, 99.2781, -192.713, 28.8377, 86.1814, -196.849, 28.8733, 100.181, -196.849, 28.8733, 100.181, -200.491, 28.8733, 106.388, -212.608, 28.7913, 99.2781, -212.608, 28.7913, 99.2781, -204.133, 28.8733, 112.595, -218.491, 28.7913, 104.17, -222.004, 28.8338, 35.2769, -212.608, 28.7913, 99.2781, -218.491, 28.7913, 104.17, -212.608, 28.7913, 99.2781, -215.888, 28.8338, 34.9652, -209.707, 28.7988, 34.9925, -25.0455, 60.6968, 169.36, -21.1067, 60.2387, 176.202, -26.0629, 60.2387, 171.846, -21.1067, 60.2387, 176.202, -16.4524, 60.6969, 171.352, -16.5564, 60.2545, 180.399, -16.5564, 60.2545, 180.399, -16.4524, 60.6969, 171.352, -6.7837, 60.2545, 172.311, -196.973, 29.0099, 38.2767, -197.494, 28.8377, 78.9176, -212.608, 28.7913, 99.2781, -197.494, 28.8377, 78.9176, -190.713, 29.0099, 40.6134, -184.453, 29.0099, 42.9501, -108.535, 42.0971, 17.0651, -102.412, 42.0971, 17.1218, -102.502, 42.0522, 26.7978, -102.502, 42.0522, 26.7978, -96.2895, 42.0971, 17.1785, -91.8742, 42.0772, 29.7021, -104.94, 42.0663, 43.759, -107.783, 42.0772, 38.3873, -91.8742, 42.0772, 29.7021, -91.8742, 42.0772, 29.7021, -107.783, 42.0772, 38.3873, -102.502, 42.0522, 26.7978, -163.789, 37.4524, 5.0752, -165.586, 37.4524, 13.7926, -179.623, 37.4301, 10.8987, -179.623, 37.4301, 10.8987, -165.586, 37.4524, 13.7926, -175.694, 37.6487, 19.4809, -175.694, 37.6487, 19.4809, -181.954, 37.6487, 17.1444, -179.623, 37.4301, 10.8987, -179.623, 37.4301, 10.8987, -181.954, 37.6487, 17.1444, -187.125, 37.4301, 11.8894, -188.471, 37.8926, -0.0585, -179.623, 37.4301, 10.8987, -187.125, 37.4301, 11.8894, -179.623, 37.4301, 10.8987, -180.953, 37.8926, -0.9054, -173.195, 37.4398, -4.0357, -209.707, 28.7988, 34.9925, -196.973, 29.0099, 38.2767, -212.608, 28.7913, 99.2781, -94.8143, 32.2035, -64.8311, -107.811, 32.2475, -48.7276, -108.564, 32.2475, -48.7603, -107.811, 32.2475, -48.7276, -94.8143, 32.2035, -64.8311, -101.809, 32.2484, -48.0375, -174.764, 31.8503, -74.4234, -175.084, 31.8503, -66.3859, -188.389, 31.8502, -66.9151, -188.389, 31.8502, -66.9151, -175.084, 31.8503, -66.3859, -179.83, 31.8502, -58.5245, -202.26, 32.1524, -84.2591, -188.389, 31.8502, -66.9151, -195.358, 31.8502, -63.4733, -188.389, 31.8502, -66.9151, -194.954, 32.1524, -86.6853, -187.127, 31.8511, -87.7413, -187.127, 31.8511, -87.7413, -179.55, 31.8511, -83.7673, -188.389, 31.8502, -66.9151, -188.389, 31.8502, -66.9151, -179.55, 31.8511, -83.7673, -174.764, 31.8503, -74.4234, -139.438, 32.2035, -141.526, -147.039, 33.3814, -145.753, -137.878, 33.3804, -163.218, -137.878, 33.3804, -163.218, -147.039, 33.3814, -145.753, -151.394, 33.5759, -158.436, -148.053, 33.5759, -173.317, -137.878, 33.3804, -163.218, -151.394, 33.5759, -158.436, -208.439, 53.6672, -186.875, -210.11, 53.6672, -179.434, -227.014, 53.4717, -183.229, -227.014, 53.4717, -183.229, -210.11, 53.6672, -179.434, -215.445, 53.4717, -172.816, -216.215, 53.5674, -199.184, -227.014, 53.4717, -183.229, -233.406, 53.4717, -188.318, -227.014, 53.4717, -183.229, -212.092, 53.5674, -192.662, -208.439, 53.6672, -186.875, -146.533, 37.3829, -224.973, -150.656, 37.3829, -231.496, -136.878, 37.2873, -240.205, -136.878, 37.2873, -240.205, -154.779, 37.3829, -238.018, -131.321, 37.2873, -252.847, -163.789, 37.4524, 5.0752, -173.195, 37.4398, -4.0357, -168.799, 37.4398, 0.573, -3.5671, 41.6908, 98.7487, -10.9718, 41.8192, 96.9154, 0.0041, 41.767, 92.1053, 159.499, 47.96, 86.0254, 166.476, 47.9803, 87.719, 164.902, 47.9963, 94.1636, 206.947, 43.1302, 174.406, 200.098, 43.1302, 174.687, 205.221, 44.9989, 132.304, 205.221, 44.9989, 132.304, 200.098, 43.1302, 174.687, 191.745, 45.0422, 132.333, 93.0105, 47.3816, 150.341, 95.1705, 47.3816, 159.255, 91.3308, 47.3816, 158.46, 91.3308, 47.3816, 158.46, 95.1705, 47.3816, 159.255, 91.1874, 47.5647, 166.011, 122.473, 45.1345, 85.4829, 124.452, 45.1088, 94.6489, 118.285, 45.9967, 87.8765, 114.995, 47.8112, 62.291, 109.668, 47.8112, 65.7472, 113.419, 47.7856, 59.8629, 113.419, 47.7856, 59.8629, 109.668, 47.8112, 65.7472, 106.274, 47.7856, 60.516, 130.968, 45.1326, 90.7589, 124.452, 45.1088, 94.6489, 129.565, 45.1326, 82.3044, 97.9951, 52.7202, 7.1162, 91.2364, 52.7202, 9.0926, 89.9641, 52.6925, 4.7414, 89.9641, 52.6925, 4.7414, 91.2364, 52.7202, 9.0926, 83.8279, 53.1949, 7.7201, 184.907, 39.4648, -1.7222, 189.404, 39.4655, -2.144, 189.985, 39.4872, 4.9102, 70.7993, 45.2117, -11.0861, 77.3849, 45.7142, -5.6473, 73.4342, 45.7142, -0.8636, 158.65, 41.859, -36.5766, 162.307, 41.8675, -30.9959, 155.978, 41.9068, -26.7262, 163.998, 41.055, -64.7261, 169.417, 41.0864, -67.4197, 172.113, 41.0572, -59.0153, 139.413, 27.1034, -91.368, 135.118, 27.1034, -85.3561, 130.049, 26.7269, -88.9772, 130.049, 26.7269, -88.9772, 135.118, 27.1034, -85.3561, 128.096, 26.7269, -81.2929, 117.095, 26.6659, -89.2507, 121.757, 26.6664, -89.1523, 121.594, 26.6665, -81.4302, -76.8253, 28.7414, -124.015, -67.8423, 28.7414, -124.189, -76.9576, 28.4669, -115.31, -76.9576, 28.4669, -115.31, -67.8423, 28.7414, -124.189, -67.6559, 28.4643, -114.592, -57.8422, 28.5891, -122.828, -58.5031, 28.5891, -113.914, -67.6559, 28.4643, -114.592, -67.6559, 28.4643, -114.592, -58.5031, 28.5891, -113.914, -66.0756, 28.4669, -105.398, 22.8741, 49.6326, -98.9186, 23.5349, 49.6326, -107.832, 28.2772, 49.5078, -107.481, 28.2772, 49.5078, -107.481, 23.5349, 49.6326, -107.832, 27.0955, 49.5202, -116.27, 27.0955, 49.5202, -116.27, 32.0971, 49.5202, -112.332, 28.2772, 49.5078, -107.481, 28.2772, 49.5078, -107.481, 32.0971, 49.5202, -112.332, 34.4468, 49.5078, -105.026, 34.325, 49.518, -99.0245, 28.1082, 49.518, -99.1508, 34.4468, 49.5078, -105.026, 34.4468, 49.5078, -105.026, 28.1082, 49.518, -99.1508, 28.2772, 49.5078, -107.481, 245.982, 50.3037, -110.109, 240.491, 50.0503, -102.751, 242.293, 50.0503, -111.14, 240.491, 50.0503, -102.751, 243.676, 50.3037, -101.861, 241.371, 50.3037, -93.6134, 45.6154, 48.4376, -119.21, 40.6139, 48.4376, -123.148, 45.8307, 48.4253, -129.773, 45.8307, 48.4253, -129.773, 40.6139, 48.4376, -123.148, 39.418, 48.4253, -131.919, 40.4793, 48.4601, -138.385, 47.0668, 48.4601, -137.303, 39.418, 48.4253, -131.919, 39.418, 48.4253, -131.919, 47.0668, 48.4601, -137.303, 45.8307, 48.4253, -129.773, -67.6559, 28.4643, -114.592, -71.5166, 28.4669, -110.354, -76.9576, 28.4669, -115.31, 45.8307, 48.4253, -129.773, 49.2116, 48.6071, -127.851, 45.6154, 48.4376, -119.21, -89.4777, 38.5408, -186.371, -92.6706, 38.5408, -179.684, -96.217, 38.3678, -181.378, -96.217, 38.3678, -181.378, -95.8635, 38.5408, -172.998, -101.906, 38.3678, -175.883, -103.012, 38.3926, -185.948, -96.217, 38.3678, -181.378, -101.906, 38.3678, -175.883, -96.217, 38.3678, -181.378, -96.7945, 38.3926, -186.632, -89.4777, 38.5408, -186.371, -64.8233, 44.9233, -171.96, -68.6527, 45.1425, -165.917, -70.1962, 45.0384, -177.164, 38.9551, 49.2429, -145.547, 42.6071, 49.2429, -151.053, 41.4752, 49.2762, -144.451, 41.4752, 49.2762, -144.451, 42.6071, 49.2429, -151.053, 48.6644, 49.2414, -147.035, 46.8069, 49.3077, -157.062, 52.8328, 49.3077, -152.169, 48.6644, 49.2414, -147.035, 48.6644, 49.2414, -147.035, 52.8328, 49.3077, -152.169, 54.6502, 49.2762, -142.288, 48.6644, 49.2414, -147.035, 48.0627, 49.2762, -143.37, 41.4752, 49.2762, -144.451, 58.1835, 52.5928, -175.998, 64.7346, 52.5928, -177.106, 58.2578, 52.656, -171.164, 58.2578, 52.656, -171.164, 64.7346, 52.5928, -177.106, 66.1725, 52.5897, -168.598, 70.9736, 52.6045, -177.994, 72.5318, 52.6045, -169.808, 66.1725, 52.5897, -168.598, 66.1725, 52.5897, -168.598, 72.5318, 52.6045, -169.808, 70.3096, 52.656, -161.379, 66.1725, 52.5897, -168.598, 64.2837, 52.656, -166.272, 58.2578, 52.656, -171.164, 148.482, 46.0627, -175.784, 146.923, 46.0627, -183.97, 158.887, 46.0479, -186.248, 158.887, 46.0479, -186.248, 145.365, 46.0627, -192.156, 157.099, 46.2781, -194.843, -33.8262, 51.5431, -201.749, -27.8336, 51.5446, -197.775, -30.9059, 51.601, -192.678, 161.919, 46.1534, -172.917, 155.499, 46.1534, -174.82, 165.486, 46.2781, -180.456, 165.486, 46.2781, -180.456, 155.499, 46.1534, -174.82, 158.887, 46.0479, -186.248, 178.795, 47.7012, -190.373, 173.605, 47.7012, -186.213, 177.248, 47.7026, -193.838, 177.248, 47.7026, -193.838, 173.605, 47.7012, -186.213, 168.899, 47.7001, -192.085, 158.887, 46.0479, -186.248, 161.292, 46.2781, -187.65, 165.486, 46.2781, -180.456, 118.7, 31.2215, 210.303, 124.603, 31.2215, 206.637, 119.892, 31.0388, 214.572, 119.892, 31.0388, 214.572, 124.603, 31.2215, 206.637, 129.218, 31.0384, 214.067, 129.218, 31.0384, 214.067, 128.252, 31.0388, 217.173, 119.892, 31.0388, 214.572, 129.218, 31.0384, 214.067, 135.277, 31.0993, 211.254, 136.612, 31.0388, 219.774, 93.0105, 47.3816, 150.341, 98.0379, 47.4635, 154.009, 95.1705, 47.3816, 159.255, 95.1705, 47.3816, 159.255, 98.0379, 47.4635, 154.009, 102.993, 47.5647, 158.678, 200.358, 43.1262, 181.037, 205.336, 43.1361, 183.647, 200.907, 43.1871, 189.972, -2.3243, 47.7325, 149.459, -10.9175, 47.7325, 147.468, -8.6703, 47.2685, 137.771, -8.6703, 47.2685, 137.771, -10.9175, 47.7325, 147.468, -17.9633, 47.3447, 136.832, 208.465, 43.1361, 177.679, 200.358, 43.1262, 181.037, 206.947, 43.1302, 174.406, 206.947, 43.1302, 174.406, 200.358, 43.1262, 181.037, 200.098, 43.1302, 174.687, 193.887, 43.1871, 174.852, 200.358, 43.1262, 181.037, 200.907, 43.1871, 189.972, 1.4618, 47.2685, 131.401, -0.2178, 47.2685, 139.52, -1.837, 47.3446, 131.404, -1.837, 47.3446, 131.404, -0.2178, 47.2685, 139.52, -8.6703, 47.2685, 137.771, -108.535, 42.0971, 17.0651, -122.849, 42.0745, 22.603, -121.052, 42.0745, 13.8857, -122.849, 42.0745, 22.603, -102.502, 42.0522, 26.7978, -125.377, 42.0986, 31.4444, -125.377, 42.0986, 31.4444, -102.502, 42.0522, 26.7978, -115.814, 42.0985, 45.9722, -101.667, 32.2035, -63.4665, -108.564, 32.2475, -48.7603, -118.827, 32.2131, -55.8988, -118.827, 32.2131, -55.8988, -108.564, 32.2475, -48.7603, -110.034, 32.2131, -46.6813, -195.358, 31.8502, -63.4733, -196.161, 31.8576, -13.5834, -202.494, 31.8576, -14.506, -196.161, 31.8576, -13.5834, -174.618, 32.3126, -12.2579, -189.654, 32.3127, -10.5637, -174.618, 32.3126, -12.2579, -196.161, 31.8576, -13.5834, -179.83, 31.8502, -58.5245, -179.83, 31.8502, -58.5245, -195.358, 31.8502, -63.4733, -188.389, 31.8502, -66.9151, -233.406, 53.4717, -188.318, -227.014, 53.4717, -183.229, -230.56, 53.5142, -132.513, -230.56, 53.5142, -132.513, -215.445, 53.4717, -172.816, -224.444, 53.5142, -132.825, -227.014, 53.4717, -183.229, -215.445, 53.4717, -172.816, -230.56, 53.5142, -132.513, -224.444, 53.5142, -132.825, -215.445, 53.4717, -172.816, -218.779, 53.774, -134.004, -129.026, 33.3804, -172.737, -146.533, 37.3829, -224.973, -130.798, 36.3965, -234.581, -126.363, 42.1741, 137.084, -131.607, 42.1741, 155.148, -133.885, 42.1741, 134.9, -133.885, 42.1741, 134.9, -147.993, 42.2561, 145.533, -140.71, 42.2561, 133.119, -7.9173, 41.767, 90.6163, -10.9718, 41.8192, 96.9154, -15.2019, 41.8192, 89.8183, 158.024, 47.9838, 94.9572, 159.499, 47.96, 86.0254, 164.902, 47.9963, 94.1636, 159.499, 47.96, 86.0254, 161.308, 47.9824, 79.7797, 168.05, 47.9644, 81.2743, 155.219, 47.9838, 78.0483, 159.499, 47.96, 86.0254, 158.024, 47.9838, 94.9572, 113.419, 47.7856, 59.8629, 106.274, 47.7856, 60.516, 109.627, 47.8133, 46.8939, 109.627, 47.8133, 46.8939, 106.274, 47.7856, 60.516, 102.868, 47.8133, 48.8703, 102.868, 47.8133, 48.8703, 106.274, 47.7856, 60.516, 96.2915, 47.7859, 51.2988, 96.2915, 47.7859, 51.2988, 106.274, 47.7856, 60.516, 96.0574, 47.7859, 69.4729, 187.326, 39.4754, -8.9098, 184.907, 39.4648, -1.7222, 182.333, 39.4754, -5.0551, 182.333, 39.4754, -5.0551, 184.907, 39.4648, -1.7222, 177.07, 39.4872, 1.1705, 94.2224, 52.7425, 2.2171, 89.9641, 52.6925, 4.7414, 91.7293, 53.1949, -1.8472, 91.7293, 53.1949, -1.8472, 89.9641, 52.6925, 4.7414, 83.8279, 53.1949, 7.7201, 81.3356, 45.7142, -10.431, 70.7993, 45.2117, -11.0861, 79.8804, 45.3292, -12.6082, 79.8804, 45.3292, -12.6082, 70.7993, 45.2117, -11.0861, 73.8251, 45.3292, -16.1947, 73.8251, 45.3292, -16.1947, 70.7993, 45.2117, -11.0861, 68.2913, 45.2119, -20.5971, 68.2913, 45.2119, -20.5971, 70.7993, 45.2117, -11.0861, 62.5808, 45.2119, -5.682, 31.4434, 44.9075, -26.1539, 26.8021, 44.9175, -34.8028, 34.2986, 44.9075, -33.6115, 26.8021, 44.9175, -34.8028, 31.4434, 44.9075, -26.1539, 19.2173, 44.9079, -33.7937, 154.355, 41.0572, -62.3894, 163.998, 41.055, -64.7261, 172.113, 41.0572, -59.0153, 163.998, 41.055, -64.7261, 160.053, 41.4316, -67.5447, 164.347, 41.4316, -73.5566, 121.92, 26.6664, -96.8744, 117.095, 26.6659, -89.2507, 114.24, 26.8476, -101.203, 114.24, 26.8476, -101.203, 117.095, 26.6659, -89.2507, 109.802, 26.8476, -93.3978, 109.802, 26.8476, -93.3978, 117.095, 26.6659, -89.2507, 105.91, 26.7833, -84.1753, 105.91, 26.7833, -84.1753, 117.095, 26.6659, -89.2507, 118.02, 26.7833, -77.0023, 139.413, 27.1034, -91.368, 130.049, 26.7269, -88.9772, 132.064, 26.8324, -95.7729, 132.064, 26.8324, -95.7729, 130.049, 26.7269, -88.9772, 125.454, 26.7275, -96.7998, 125.454, 26.7275, -96.7998, 130.049, 26.7269, -88.9772, 125.128, 26.7275, -81.3556, 242.293, 50.0503, -111.14, 234.759, 50.0515, -109.904, 239.95, 50.0514, -114.063, 234.759, 50.0515, -109.904, 240.491, 50.0503, -102.751, 229.956, 50.0817, -106.042, 229.956, 50.0817, -106.042, 240.491, 50.0503, -102.751, 236.754, 50.0817, -92.3666, 236.754, 50.0817, -92.3666, 240.491, 50.0503, -102.751, 241.371, 50.3037, -93.6134, -73.3892, 45.0384, -170.477, -68.6527, 45.1425, -165.917, -77.6358, 45.1425, -165.743, -24.1815, 51.5446, -203.281, -33.8262, 51.5431, -201.749, -25.7473, 51.5482, -205.255, -25.7473, 51.5482, -205.255, -33.8262, 51.5431, -201.749, -33.6301, 51.5482, -205.651, -42.7739, 51.601, -205.028, -33.8262, 51.5431, -201.749, -30.9059, 51.601, -192.678, 177.248, 47.7026, -193.838, 168.899, 47.7001, -192.085, 170.03, 47.7026, -195.95, 170.03, 47.7026, -195.95, 168.899, 47.7001, -192.085, 161.122, 47.9303, -197.189, -8.6703, 47.2685, 137.771, -9.9002, 47.3446, 134.117, -1.837, 47.3446, 131.404, -139.438, 32.2035, -141.526, -105.512, 30.0115, -83.9072, -117.412, 32.2458, -80.851, -15.2834, 40.5158, 99.4853, -19.0374, 41.6753, 106.972, -19.5135, 40.5158, 92.3882, -19.5135, 40.5158, 92.3882, -19.0374, 41.6753, 106.972, -27.1005, 41.6753, 109.687, 118.285, 45.9967, 87.8765, 124.452, 45.1088, 94.6489, 108.985, 40.4813, 121.114, 108.985, 40.4813, 121.114, 124.452, 45.1088, 94.6489, 114.423, 40.4399, 124.193, 114.423, 40.4399, 124.193, 132.602, 45.5527, 98.2164, 119.86, 40.3986, 127.271, 102.993, 47.5647, 158.678, 98.0379, 47.4635, 154.009, 119.86, 40.3986, 127.271, 119.86, 40.3986, 127.271, 98.0379, 47.4635, 154.009, 114.423, 40.4399, 124.193, 114.423, 40.4399, 124.193, 93.0105, 47.3816, 150.341, 108.985, 40.4813, 121.114, 191.745, 45.0422, 132.333, 202.547, 49.5954, 103.509, 205.221, 44.9989, 132.304, 164.902, 47.9963, 94.1636, 166.476, 47.9803, 87.719, 190.423, 49.0804, 100.499, 190.423, 49.0804, 100.499, 166.476, 47.9803, 87.719, 193.808, 49.0993, 87.3283, -93.8307, 41.729, -216.921, -130.798, 36.3965, -234.581, -131.321, 37.2873, -252.847, -130.798, 36.3965, -234.581, -136.878, 37.2873, -240.205, -131.321, 37.2873, -252.847, -113.873, 32.2175, -164.871, -129.026, 33.3804, -172.737, -121.564, 32.1935, -163.339, -94.8143, 32.2035, -64.8311, -103.271, 32.2035, -69.3054, -94.6838, 30.0115, -74.0442, -117.888, 32.2035, -72.1215, -101.667, 32.2035, -63.4665, -118.827, 32.2131, -55.8988, -102.2, 38.6296, -5.8194, -108.535, 42.0971, 17.0651, -108.28, 38.6299, -6.0951)

[node name="Landscape01Scene" type="Node3D"]
script = ExtResource("1_axl53")
session_gameplay_elements = Array[PackedScene]([ExtResource("2_keqpg"), ExtResource("3_pe0js"), ExtResource("4_jytmh"), ExtResource("8_mahiw"), ExtResource("9_ghvlt")])
session_scene_elements = Array[PackedScene]([ExtResource("10_w50fa"), ExtResource("11_w8nms"), ExtResource("12_csnxb"), ExtResource("13_avxoo"), ExtResource("14_keocc"), ExtResource("15_0ldj2"), ExtResource("5_wkmwq"), ExtResource("6_3q6nw"), ExtResource("7_ipomn")])
session_vehicle_ai_drivers = Array[PackedScene]([ExtResource("16_rac7u"), ExtResource("18_jpyk8"), ExtResource("20_vxms8"), ExtResource("22_yp0fm"), ExtResource("24_4ljmy")])
post_init_disabled_object_paths = Array[NodePath]([NodePath("Landscape01DynamicNavigation/environment/navmesh_landscape01")])

[node name="WorldEnvironment" parent="." instance=ExtResource("26_v6ni0")]

[node name="DirectionalLight3D" parent="." instance=ExtResource("27_6f5so")]
transform = Transform3D(0.724717, -0.530873, -0.43927, 0.0861097, -0.562729, 0.822144, -0.683645, -0.633647, -0.362106, 0, 0, 0)

[node name="HUD" parent="." instance=ExtResource("28_i3h2r")]

[node name="FadeAnimation" parent="." instance=ExtResource("29_one1u")]

[node name="VehicleDriversAI" type="Node3D" parent="."]

[node name="InstancePos" parent="." instance=ExtResource("30_w8x0q")]
transform = Transform3D(1, 0, 0, 0, 1, 0, 0, 0, 1, -223, 54.5, -170)

[node name="Landscape01DynamicNavigation" parent="." instance=ExtResource("32_ixmjs")]

[node name="roads_landscape01" parent="Landscape01DynamicNavigation/NavigationRegion3D/environment" index="0"]
layers = 9

[node name="StaticBody3D" parent="Landscape01DynamicNavigation/NavigationRegion3D/environment/roads_landscape01" index="0"]
collision_layer = 805306369
physics_material_override = SubResource("PhysicsMaterial_jxtit")

[node name="StaticBody3D" parent="Landscape01DynamicNavigation/NavigationRegion3D/environment/roads-guardrail_landscape01" index="0"]
collision_layer = 536870913
physics_material_override = SubResource("PhysicsMaterial_jxtit")

[node name="Border0" parent="Landscape01DynamicNavigation/NavigationRegion3D/borders" index="0"]
layers = 9

[node name="StaticBody3D" parent="Landscape01DynamicNavigation/NavigationRegion3D/borders/Border0" index="0"]
collision_layer = 536870913
physics_material_override = SubResource("PhysicsMaterial_vcghn")

[node name="Border1" parent="Landscape01DynamicNavigation/NavigationRegion3D/borders" index="1"]
layers = 9

[node name="StaticBody3D" parent="Landscape01DynamicNavigation/NavigationRegion3D/borders/Border1" index="0"]
collision_layer = 536870913
physics_material_override = SubResource("PhysicsMaterial_vcghn")

[node name="Border2" parent="Landscape01DynamicNavigation/NavigationRegion3D/borders" index="2"]
layers = 9

[node name="StaticBody3D" parent="Landscape01DynamicNavigation/NavigationRegion3D/borders/Border2" index="0"]
collision_layer = 536870913
physics_material_override = SubResource("PhysicsMaterial_vcghn")

[node name="Border3" parent="Landscape01DynamicNavigation/NavigationRegion3D/borders" index="3"]
layers = 9

[node name="StaticBody3D" parent="Landscape01DynamicNavigation/NavigationRegion3D/borders/Border3" index="0"]
collision_layer = 536870913
physics_material_override = SubResource("PhysicsMaterial_vcghn")

[node name="placer-trees11" parent="Landscape01DynamicNavigation/NavigationRegion3D/elements-multimesh/trees" index="0"]
enabled = false

[node name="landscape_landscape01" parent="Landscape01DynamicNavigation/environment" index="0"]
surface_material_override/0 = SubResource("ShaderMaterial_op4ho")

[node name="StaticBody3D" parent="Landscape01DynamicNavigation/environment/landscape_landscape01" index="0"]
collision_layer = 536870913
physics_material_override = SubResource("PhysicsMaterial_0n8iq")

[node name="StaticBody3D" type="StaticBody3D" parent="Landscape01DynamicNavigation/environment/navmesh_landscape01" index="0"]
collision_layer = 1073741824
physics_material_override = SubResource("PhysicsMaterial_8aaef")

[node name="CollisionShape3D" type="CollisionShape3D" parent="Landscape01DynamicNavigation/environment/navmesh_landscape01/StaticBody3D"]
shape = SubResource("ConcavePolygonShape3D_tw2wi")

[node name="GameplayElements" type="Node3D" parent="."]

[node name="DeadZones" type="Node3D" parent="GameplayElements"]

[node name="DeadZone" parent="GameplayElements/DeadZones" instance=ExtResource("32_t5tmi")]
transform = Transform3D(1, 0, 0, 0, 1, 0, 0, 0, 1, 0, -40, 0)

[node name="EndZones" type="Node3D" parent="GameplayElements"]
script = ExtResource("33_oi5aq")
objects_number = 1
object_scene = ExtResource("34_6b2dm")
placement_space_center = Vector3(125, 0, 125)
placement_space_size = Vector3(125, 200, 125)
placement_objects_names = Array[String](["roads_landscape01"])

[editable path="Landscape01DynamicNavigation"]
[editable path="Landscape01DynamicNavigation/NavigationRegion3D/environment/roads_landscape01"]
[editable path="Landscape01DynamicNavigation/NavigationRegion3D/environment/roads-guardrail_landscape01"]
[editable path="Landscape01DynamicNavigation/environment/landscape_landscape01"]
