[gd_scene load_steps=3 format=3 uid="uid://jtjrn4ywi2aw"]

[ext_resource type="Script" path="res://player/ai/models/shooting_area.gd" id="1_isdnc"]

[sub_resource type="SphereShape3D" id="1"]
radius = 20.0

[node name="ShootingArea" type="Area3D"]
collision_layer = 8192
collision_mask = 6
monitorable = false
script = ExtResource("1_isdnc")

[node name="CollisionShape3D" type="CollisionShape3D" parent="."]
shape = SubResource("1")
