[gd_scene load_steps=3 format=3 uid="uid://bfd2dj55ca3hi"]

[ext_resource type="PackedScene" uid="uid://wfj72ypp0civ" path="res://vehicles/ai/steering_drivers/steering_pipeline/pickup_ai_driver_sp_1.tscn" id="1_r1ua1"]
[ext_resource type="PackedScene" uid="uid://dksxm5prxhr4v" path="res://vehicles/cameras/fixed_camera.tscn" id="2_4smtk"]

[node name="PickupAIDriverSteeringPipeline1" instance=ExtResource("1_r1ua1")]

[node name="PickupAISteeringPipeline" parent="." index="0"]
steering_pipeline_file_dict = {
"chase_seek": "res://xxx-no-export/vehicles/ai/config_data/steering_pipeline_chase_seek.json",
"chase_seek_min_dist": "res://xxx-no-export/vehicles/ai/config_data/steering_pipeline_chase_seek_min_dist.json",
"stand_still": "res://xxx-no-export/vehicles/ai/config_data/steering_pipeline_stand_still.json"
}

[node name="ShooterAI" parent="PickupAISteeringPipeline/PickupAI/Body/ShooterAIDriver/ShooterAIPrioritySteering" index="0"]
weapons_by_session = false

[node name="FixedCamera" parent="PickupAISteeringPipeline/PickupAI/Body/ShooterAIDriver/ShooterAIPrioritySteering/ShooterAI/RotationHelper/Head" index="0" instance=ExtResource("2_4smtk")]
transform = Transform3D(9.43396, 0, 0, 0, 9.39806, -0.822224, 0, 0.822224, 9.39806, -0.462, -0.775, 1.5)

[node name="TargetRight" parent="PickupAISteeringPipeline/PickupAI/Body/ShooterAIDriver/ShooterAIPrioritySteering/ShooterAI/RotationHelper/AimingTargets" index="0"]
transform = Transform3D(0.0614195, 0.519741, 0.85488, 1.00021, -0.0517752, -0.0403827, 0.0232178, 0.855519, -0.521797, -0.287677, -0.279941, 0.540893)

[node name="TargetLeft" parent="PickupAISteeringPipeline/PickupAI/Body/ShooterAIDriver/ShooterAIPrioritySteering/ShooterAI/RotationHelper/AimingTargets" index="2"]
transform = Transform3D(0.171941, -0.738819, -0.655213, -0.878776, 0.188901, -0.443613, 0.450458, 0.650526, -0.615326, 0.278656, -0.253355, 0.608204)

[editable path="PickupAISteeringPipeline"]
[editable path="PickupAISteeringPipeline/PickupAI"]
[editable path="PickupAISteeringPipeline/PickupAI/Body"]
[editable path="PickupAISteeringPipeline/PickupAI/Body/Pickup"]
[editable path="PickupAISteeringPipeline/PickupAI/Body/ShooterAIDriver"]
[editable path="PickupAISteeringPipeline/PickupAI/Body/ShooterAIDriver/ShooterAIPrioritySteering"]
[editable path="PickupAISteeringPipeline/PickupAI/Body/ShooterAIDriver/ShooterAIPrioritySteering/ShooterAI"]
[editable path="PickupAISteeringPipeline/PickupAI/Body/ShooterAIDriver/ShooterAIPrioritySteering/ShooterAI/RotationHelper/AnimatedModel"]
