[gd_scene load_steps=2 format=3 uid="uid://8hkdfa61bpuj"]

[ext_resource type="PackedScene" uid="uid://dqdnlnm4qvvri" path="res://levels/0-placer-session_items/placer-scene_elements/placer_blast_zone.tscn" id="1_7bnob"]

[node name="PlacerBlastZone" instance=ExtResource("1_7bnob")]
placement_objects_names = Array[String](["landscape_debug"])
placement_mask_object_name = "navmesh_debug"
