[gd_scene load_steps=2 format=3 uid="uid://h2do4q8y7pja"]

[ext_resource type="PackedScene" uid="uid://i2fkc3hqw34y" path="res://levels/0-placer-session_items/placer-gameplay_elements/placer_ammo_pickup_high.tscn" id="1_jfvm4"]

[node name="PlacerAmmoPickupHigh" instance=ExtResource("1_jfvm4")]
placement_objects_names = Array[String](["landscape_debug"])
placement_mask_object_name = "navmesh_debug"
