[gd_scene load_steps=2 format=3 uid="uid://3snjd73n5jkh"]

[ext_resource type="PackedScene" uid="uid://xehw37j3237e" path="res://levels/0-placer-session_items/placer-gameplay_elements/placer_health_pickup_low.tscn" id="1_2gygy"]

[node name="PlacerHealthPickupLow" instance=ExtResource("1_2gygy")]
placement_objects_names = Array[String](["landscape_debug"])
placement_mask_object_name = "navmesh_debug"
