[gd_scene load_steps=2 format=3 uid="uid://boohxhaq13etc"]

[ext_resource type="PackedScene" uid="uid://duny7arcxo4he" path="res://levels/0-placer-session_items/placer-gameplay_elements/placer_coin_zone_gold_coin.tscn" id="1_ngn5a"]

[node name="PlacerCoinZoneGold" instance=ExtResource("1_ngn5a")]
placement_objects_names = Array[String](["landscape_debug"])
placement_mask_object_name = "navmesh_debug"
