[gd_scene load_steps=3 format=3 uid="uid://cmpyjglj5rks6"]

[ext_resource type="Script" path="res://levels/tools/objects_placer.gd" id="1_ynkpf"]
[ext_resource type="PackedScene" uid="uid://dkc76sekac50t" path="res://vehicles/ai/steering_drivers/priority_steering/wagon_ai_driver_ps.tscn" id="2_l1xw6"]

[node name="PlacerSteeringDriverWagonAIPrioritySteering" type="Node3D"]
script = ExtResource("1_ynkpf")
objects_number = 1
object_scene = ExtResource("2_l1xw6")
delta_pos = Vector3(0, 0.2, 0)
