[gd_scene load_steps=3 format=3 uid="uid://0o2ja4tyss6g"]

[ext_resource type="Script" path="res://levels/tools/objects_placer.gd" id="1_mhc11"]
[ext_resource type="PackedScene" uid="uid://ucba5k83g8b" path="res://vehicles/ai/steering_drivers/priority_steering/pickup_ai_driver_ps.tscn" id="2_d2c4j"]

[node name="PlacerSteeringDriverPickupAIPrioritySteering" type="Node3D"]
script = ExtResource("1_mhc11")
objects_number = 1
object_scene = ExtResource("2_d2c4j")
delta_pos = Vector3(0, 0.2, 0)
