{
	"seek": {
		"setup_args": [
			{
				"max_acceleration": 5.0
			},
			{
				"damping": 0.2
			},
			{
				"dims": 3
			}
		],
		"name": "seek",
		"weight": 1.0,
		"_pre_update": "_pre_update_pos",
		"signal": ""
	},
	"flee": {
		"setup_args": [
			{
				"max_acceleration": 5.0
			},
			{
				"damping": 0.2
			},
			{
				"dims": 3
			}
		],
		"name": "flee",
		"weight": 1.0,
		"_pre_update": "_pre_update_pos",
		"signal": ""
	},
	"arrive": {
		"setup_args": [
			{
				"max_acceleration": 5.0
			},
			{
				"max_speed": 10.0
			},
			{
				"target_radius": 2.5
			},
			{
				"slow_radius": 15.0
			},
			{
				"time_to_target_radius": 0.1
			},
			{
				"damping": 0.2
			},
			{
				"dims": 3
			}
		],
		"name": "arrive",
		"weight": 1.0,
		"_pre_update": "_pre_update_pos",
		"signal": ""
	},
	"leave": {
		"setup_args": [
			{
				"max_acceleration": 5.0
			},
			{
				"max_speed": 10.0
			},
			{
				"target_radius": 15.0
			},
			{
				"slow_radius": 7.5
			},
			{
				"time_to_target_radius": 0.1
			},
			{
				"damping": 0.2
			},
			{
				"dims": 3
			}
		],
		"name": "leave",
		"weight": 1.0,
		"_pre_update": "_pre_update_pos",
		"signal": ""
	},
	"align": {
		"setup_args": [
			{
				"max_angular_acceleration": 5.0
			},
			{
				"max_rotation": 5.0
			},
			{
				"target_radius": 0.09
			},
			{
				"slow_radius": 0.79
			},
			{
				"time_to_target": 0.1
			},
			{
				"damping": 0.2
			},
			{
				"dims": 3
			}
		],
		"name": "align",
		"weight": 1.0,
		"_pre_update": "_pre_update_ori",
		"signal": ""
	},
	"velocity_match": {
		"setup_args": [
			{
				"max_acceleration": 5.0
			},
			{
				"time_to_target": 0.1
			},
			{
				"damping": 0.2
			},
			{
				"dims": 3
			}
		],
		"name": "velocity_match",
		"weight": 1.0,
		"_pre_update": "_pre_update_vel",
		"signal": ""
	},
	"pursue": {
		"setup_args": [
			{
				"max_acceleration": 5.0
			},
			{
				"max_prediction": 1.0
			},
			{
				"damping": 0.2
			},
			{
				"dims": 3
			}
		],
		"name": "pursue",
		"weight": 1.0,
		"_pre_update": "_pre_update_pos_vel",
		"signal": ""
	},
	"evade": {
		"setup_args": [
			{
				"max_acceleration": 5.0
			},
			{
				"max_prediction": 1.0
			},
			{
				"damping": 0.2
			},
			{
				"dims": 3
			}
		],
		"name": "evade",
		"weight": 1.0,
		"_pre_update": "_pre_update_pos_vel",
		"signal": ""
	},
	"pursue2": {
		"setup_args": [
			{
				"max_acceleration": 5.0
			},
			{
				"max_speed": 10.0
			},
			{
				"target_radius": 7.5
			},
			{
				"slow_radius": 15.0
			},
			{
				"time_to_target_radius": 0.1
			},
			{
				"max_prediction": 1.0
			},
			{
				"damping": 0.2
			},
			{
				"dims": 3
			}
		],
		"name": "pursue2",
		"weight": 1.0,
		"_pre_update": "_pre_update_pos_vel",
		"signal": ""
	},
	"evade2": {
		"setup_args": [
			{
				"max_acceleration": 5.0
			},
			{
				"max_speed": 10.0
			},
			{
				"target_radius": 15.0
			},
			{
				"slow_radius": 7.5
			},
			{
				"time_to_target_radius": 0.1
			},
			{
				"max_prediction": 1.0
			},
			{
				"damping": 0.2
			},
			{
				"dims": 3
			}
		],
		"name": "evade2",
		"weight": 1.0,
		"_pre_update": "_pre_update_pos_vel",
		"signal": ""
	},
	"face": {
		"setup_args": [
			{
				"max_angular_acceleration": 5.0
			},
			{
				"max_rotation": 5.0
			},
			{
				"target_radius": 0.09
			},
			{
				"slow_radius": 0.79
			},
			{
				"time_to_target": 0.1
			},
			{
				"damping": 0.2
			},
			{
				"dims": 3
			}
		],
		"name": "face",
		"weight": 1.0,
		"_pre_update": "_pre_update_pos_char_pos",
		"signal": ""
	},
	"look_where_youre_going": {
		"setup_args": [
			{
				"max_angular_acceleration": 5.0
			},
			{
				"max_rotation": 5.0
			},
			{
				"target_radius": 0.09
			},
			{
				"slow_radius": 0.79
			},
			{
				"time_to_target": 0.1
			},
			{
				"damping": 0.2
			},
			{
				"dims": 3
			}
		],
		"name": "look_where_youre_going",
		"weight": 1.0,
		"_pre_update": "_pre_update_char_vel",
		"signal": ""
	},
	"wander": {
		"setup_args": [
			{
				"max_angular_acceleration": 5.0
			},
			{
				"max_rotation": 5.0
			},
			{
				"target_radius": 0.09
			},
			{
				"slow_radius": 0.79
			},
			{
				"time_to_target": 0.1
			},
			{
				"wander_offset": 15.0
			},
			{
				"wander_radius": 7.5
			},
			{
				"wander_rate": 30.0
			},
			{
				"wander_orientation": 0.0
			},
			{
				"max_acceleration": 5.0
			},
			{
				"damping": 0.2
			},
			{
				"dims": 3
			}
		],
		"name": "wander",
		"weight": 1.0,
		"_pre_update": "_pre_update_pass",
		"signal": ""
	},
	"follow_path": {
		"setup_args": [
			{
				"max_acceleration": 50.0
			},
			{
				"path": null
			},
			{
				"path_offset": 0.05
			},
			{
				"predict_time": 0.1
			},
			{
				"damping": 0.2
			},
			{
				"dims": 3
			}
		],
		"name": "follow_path",
		"weight": 1.0,
		"_pre_update": "_pre_update_pass",
		"signal": ""
	},
	"follow_path_predictive": {
		"setup_args": [
			{
				"max_acceleration": 50.0
			},
			{
				"path": null
			},
			{
				"path_offset": 0.05
			},
			{
				"predict_time": 0.1
			},
			{
				"damping": 0.2
			},
			{
				"dims": 3
			}
		],
		"name": "follow_path_predictive",
		"weight": 1.0,
		"_pre_update": "_pre_update_pass",
		"signal": ""
	},
	"separation": {
		"setup_args": [
			{
				"max_acceleration": 5.0
			},
			{
				"threshold": 5.0
			},
			{
				"decay_coefficient": 15.0
			},
			{
				"damping": 0.2
			},
			{
				"dims": 3
			}
		],
		"name": "separation",
		"weight": 1.0,
		"_pre_update": "_pre_update_pass",
		"signal": ""
	},
	"attraction": {
		"setup_args": [
			{
				"max_acceleration": 5.0
			},
			{
				"threshold": 5.0
			},
			{
				"decay_coefficient": 15.0
			},
			{
				"damping": 0.2
			},
			{
				"dims": 3
			}
		],
		"name": "separation",
		"weight": 1.0,
		"_pre_update": "_pre_update_pass",
		"signal": ""
	},
	"collision_avoidance": {
		"setup_args": [
			{
				"max_acceleration": 1.0
			},
			{
				"radius": 5.0
			},
			{
				"epsilon": 0.1
			},
			{
				"damping": 0.2
			},
			{
				"dims": 3
			}
		],
		"name": "collision_avoidance",
		"weight": 1.0,
		"_pre_update": "_pre_update_pass",
		"signal": ""
	},
	"obstacle_avoidance": {
		"setup_args": [
			{
				"max_acceleration": 50.0
			},
			{
				"detector": null
			},
			{
				"avoid_distance": 25.0
			},
			{
				"lookahead": 1.0
			},
			{
				"num_rays": 1
			},
			{
				"whiskers_angle": 0.26
			},
			{
				"damping": 0.2
			},
			{
				"dims": 3
			}
		],
		"name": "obstacle_avoidance",
		"weight": 1.0,
		"_pre_update": "_pre_update_pass",
		"signal": ""
	}
}
