[gd_scene load_steps=3 format=3 uid="uid://0u6cp7twecym"]

[ext_resource type="Script" path="res://vehicles/controls/accelerometer.gd" id="1"]
[ext_resource type="PackedScene" uid="uid://cn0bimclymwjo" path="res://vehicles/controls/low_pass_filter.tscn" id="2"]

[node name="Accelerometer" type="Node3D"]
visible = false
script = ExtResource("1")

[node name="LowPassFilter" parent="." instance=ExtResource("2")]
