[gd_scene load_steps=2 format=3 uid="uid://c53nomhg2u7v6"]

[ext_resource type="PackedScene" uid="uid://bpryxo4beqxmy" path="res://xxx-no-export/levels/old/dynamic_number_items_common/gameplay_elements/health_pickup_low_placer.tscn" id="1_u3r2t"]

[node name="HealthPickupLowPlacer" instance=ExtResource("1_u3r2t")]
placement_objects_names = Array[String](["roads_city02", "sidewalks_city02", "terrain_city02"])
