[gd_scene load_steps=5 format=3 uid="uid://6mj7baxb72g0"]

[ext_resource type="PackedScene" uid="uid://jl8y13og76bs" path="res://vehicles/ai/models/bus_ai.tscn" id="2_f1vgs"]
[ext_resource type="Material" uid="uid://ciatij2paa52d" path="res://assets/materials/BaseColor03.material" id="3_xel6r"]
[ext_resource type="Material" uid="uid://c8nrluiidhgww" path="res://assets/materials/BaseColor04.material" id="4_tee4n"]
[ext_resource type="Script" path="res://vehicles/ai/steering_behaviors/vehicle_ai_priority_steering.gd" id="8"]

[node name="BusAIPrioritySteering" type="Node3D"]
_import_path = NodePath(".")
script = ExtResource("8")

[node name="BusAI" parent="." instance=ExtResource("2_f1vgs")]

[node name="Body" parent="BusAI" index="0"]
steering_behavior_path = NodePath("../..")

[node name="Bus" parent="BusAI/Body" index="0"]
material_list = Array[Material]([ExtResource("3_xel6r"), ExtResource("4_tee4n")])

[node name="TargetRight" parent="BusAI/Body/ShooterAIDriver/ShooterAIPrioritySteering/ShooterAI/RotationHelper/AimingTargets" index="0"]
transform = Transform3D(0.808614, -0.018972, 0.858138, 0.858272, 0.00221903, -0.808692, 0.0113959, 1.17909, 0.01533, -0.261881, -0.167422, 0.577474)

[node name="TargetLeft" parent="BusAI/Body/ShooterAIDriver/ShooterAIPrioritySteering/ShooterAI/RotationHelper/AimingTargets" index="2"]
transform = Transform3D(0.891914, -0.0926443, -0.765849, -0.759515, -0.310445, -0.846983, -0.135075, 1.13387, -0.294472, 0.307926, -0.166548, 0.578493)

[editable path="BusAI"]
[editable path="BusAI/Body"]
[editable path="BusAI/Body/Bus"]
[editable path="BusAI/Body/ShooterAIDriver"]
[editable path="BusAI/Body/ShooterAIDriver/ShooterAIPrioritySteering"]
[editable path="BusAI/Body/ShooterAIDriver/ShooterAIPrioritySteering/ShooterAI"]
[editable path="BusAI/Body/ShooterAIDriver/ShooterAIPrioritySteering/ShooterAI/RotationHelper/AnimatedModel"]
