[gd_scene load_steps=5 format=3 uid="uid://bnbdk3mi0gmav"]

[ext_resource type="PackedScene" uid="uid://dqe5xkugnoy3m" path="res://vehicles/ai/models/pickup_ai.tscn" id="2_m0u4i"]
[ext_resource type="Material" uid="uid://ciatij2paa52d" path="res://assets/materials/BaseColor03.material" id="3_nxvdw"]
[ext_resource type="Material" uid="uid://c8nrluiidhgww" path="res://assets/materials/BaseColor04.material" id="4_s6nrv"]
[ext_resource type="Script" path="res://vehicles/ai/steering_behaviors/vehicle_ai_priority_steering.gd" id="7"]

[node name="PickupAIPrioritySteering" type="Node3D"]
_import_path = NodePath(".")
script = ExtResource("7")

[node name="PickupAI" parent="." instance=ExtResource("2_m0u4i")]

[node name="Body" parent="PickupAI" index="0"]
steering_behavior_path = NodePath("../..")

[node name="Pickup" parent="PickupAI/Body" index="0"]
material_list = Array[Material]([ExtResource("3_nxvdw"), ExtResource("4_s6nrv")])

[node name="TargetRight" parent="PickupAI/Body/ShooterAIDriver/ShooterAIPrioritySteering/ShooterAI/RotationHelper/AimingTargets" index="0"]
transform = Transform3D(0.0614195, 0.519741, 0.85488, 1.00021, -0.0517752, -0.0403827, 0.0232178, 0.855519, -0.521797, -0.287677, -0.279941, 0.540893)

[node name="TargetLeft" parent="PickupAI/Body/ShooterAIDriver/ShooterAIPrioritySteering/ShooterAI/RotationHelper/AimingTargets" index="2"]
transform = Transform3D(0.171941, -0.738819, -0.655213, -0.878776, 0.188901, -0.443613, 0.450458, 0.650526, -0.615326, 0.278656, -0.253355, 0.608204)

[editable path="PickupAI"]
[editable path="PickupAI/Body"]
[editable path="PickupAI/Body/Pickup"]
[editable path="PickupAI/Body/ShooterAIDriver"]
[editable path="PickupAI/Body/ShooterAIDriver/ShooterAIPrioritySteering"]
[editable path="PickupAI/Body/ShooterAIDriver/ShooterAIPrioritySteering/ShooterAI"]
[editable path="PickupAI/Body/ShooterAIDriver/ShooterAIPrioritySteering/ShooterAI/RotationHelper/AnimatedModel"]
