[gd_scene load_steps=5 format=3 uid="uid://bsan38hdv4iik"]

[ext_resource type="PackedScene" uid="uid://24k1eedbghme" path="res://vehicles/ai/models/wagon_ai.tscn" id="2_etby4"]
[ext_resource type="Material" uid="uid://ciatij2paa52d" path="res://assets/materials/BaseColor03.material" id="3_nje2h"]
[ext_resource type="Material" uid="uid://c8nrluiidhgww" path="res://assets/materials/BaseColor04.material" id="4_g5uvv"]
[ext_resource type="Script" path="res://vehicles/ai/steering_behaviors/vehicle_ai_priority_steering.gd" id="7"]

[node name="WagonAIPrioritySteering" type="Node3D"]
_import_path = NodePath(".")
script = ExtResource("7")

[node name="WagonAI" parent="." instance=ExtResource("2_etby4")]

[node name="Body" parent="WagonAI" index="0"]
steering_behavior_path = NodePath("../..")

[node name="Wagon" parent="WagonAI/Body" index="0"]
material_list = Array[Material]([ExtResource("3_nje2h"), ExtResource("4_g5uvv")])

[node name="TargetRight" parent="WagonAI/Body/ShooterAIDriver/ShooterAIPrioritySteering/ShooterAI/RotationHelper/AimingTargets" index="0"]
transform = Transform3D(0.0614195, 0.519741, 0.85488, 1.00021, -0.0517752, -0.0403827, 0.0232178, 0.855519, -0.521797, -0.287677, -0.279941, 0.540893)

[node name="TargetLeft" parent="WagonAI/Body/ShooterAIDriver/ShooterAIPrioritySteering/ShooterAI/RotationHelper/AimingTargets" index="2"]
transform = Transform3D(0.171941, -0.738819, -0.655213, -0.878776, 0.188901, -0.443613, 0.450458, 0.650526, -0.615326, 0.278656, -0.253355, 0.608204)

[editable path="WagonAI"]
[editable path="WagonAI/Body"]
[editable path="WagonAI/Body/Wagon"]
[editable path="WagonAI/Body/ShooterAIDriver"]
[editable path="WagonAI/Body/ShooterAIDriver/ShooterAIPrioritySteering"]
[editable path="WagonAI/Body/ShooterAIDriver/ShooterAIPrioritySteering/ShooterAI"]
[editable path="WagonAI/Body/ShooterAIDriver/ShooterAIPrioritySteering/ShooterAI/RotationHelper/AnimatedModel"]
