[gd_scene load_steps=3 format=3 uid="uid://qwcj0n3sp4na"]

[ext_resource type="PackedScene" uid="uid://cwann42ftex1h" path="res://assets/vehicles/steering_wheel.glb" id="1"]
[ext_resource type="Script" path="res://vehicles/bodies/steering_wheel.gd" id="2_hhss3"]

[node name="SteeringWheel" instance=ExtResource("1")]
script = ExtResource("2_hhss3")

[node name="steering" parent="." index="0"]
layers = 2
