[gd_scene load_steps=5 format=3 uid="uid://b0kgrq2juiklg"]

[ext_resource type="Script" path="res://vehicles/cameras/rearview_mirror.gd" id="1"]
[ext_resource type="Script" path="res://vehicles/cameras/real_camera.gd" id="2_617rt"]

[sub_resource type="SphereMesh" id="9"]
radius = 0.2
height = 0.4
radial_segments = 16
rings = 16

[sub_resource type="ViewportTexture" id="11"]
viewport_path = NodePath("SubViewport")

[node name="RearviewMirror" type="Marker3D"]
script = ExtResource("1")

[node name="Target" type="Node3D" parent="."]
transform = Transform3D(1, 0, 0, 0, 1, 0, 0, 0, 1, 0, 0, -8)

[node name="DebugMesh" type="MeshInstance3D" parent="Target"]
visible = false
mesh = SubResource("9")
skeleton = NodePath("")

[node name="SubViewport" type="SubViewport" parent="."]
handle_input_locally = false
size = Vector2i(200, 75)
render_target_update_mode = 3

[node name="TrackingCameraParent" type="Node3D" parent="SubViewport"]

[node name="InnerCamera" type="Camera3D" parent="SubViewport/TrackingCameraParent"]
cull_mask = 11
script = ExtResource("2_617rt")
camera_base_path = NodePath("../../..")

[node name="CenterContainer" type="CenterContainer" parent="."]
anchors_preset = 5
anchor_left = 0.5
anchor_right = 0.5
offset_left = -100.0
offset_top = 25.0
offset_right = 100.0
offset_bottom = 100.0

[node name="TextureRect" type="TextureRect" parent="CenterContainer"]
layout_mode = 2
texture = SubResource("11")
flip_h = true
