[gd_scene load_steps=4 format=3 uid="uid://77xnccvku3cf"]

[ext_resource type="Script" path="res://vehicles/cameras/tracking_camera.gd" id="1"]
[ext_resource type="PackedScene" uid="uid://ddsk416k4ixk6" path="res://vehicles/controls/virtual_analog.tscn" id="2"]
[ext_resource type="Script" path="res://vehicles/cameras/real_camera.gd" id="2_jfk8h"]

[node name="TrackingCamera" type="Marker3D"]
script = ExtResource("1")
virtual_region_x_ratio = 0.65
virtual_region_width_ratio = 0.3
virtual_region_y_ratio = 0.75
virtual_region_height_ratio = 0.2

[node name="Camera3D" type="Camera3D" parent="."]
cull_mask = 11
script = ExtResource("2_jfk8h")
camera_base_path = NodePath("..")

[node name="VirtualAnalog" parent="." instance=ExtResource("2")]
outer_scale = Vector2(1.5, 1.5)
