[gd_scene load_steps=2 format=3 uid="uid://6f3oepoa8765"]

[ext_resource type="PackedScene" uid="uid://43ps6u27ov15" path="res://levels/0-placer-session_items/placer-vehicle_ai_steering_drivers_sp/placer_steering_driver_pickup_ai_sp_2.tscn" id="1_jrifs"]

[node name="PlacerSteeringDriverPickupAISteeringPipeline2" instance=ExtResource("1_jrifs")]
placement_objects_names = Array[String](["roads_landscape01"])
