[gd_scene load_steps=2 format=3 uid="uid://wlt1xk4kivyw"]

[ext_resource type="PackedScene" uid="uid://hgn2hpg4f622" path="res://levels/0-placer-session_items/placer-vehicle_ai_steering_drivers_sp/placer_steering_driver_car01_ai_sp_1.tscn" id="1_11hqn"]

[node name="PlacerSteeringDriverCar01AISteeringPipeline1" instance=ExtResource("1_11hqn")]
placement_objects_names = Array[String](["roads_landscape01"])
