[gd_scene load_steps=2 format=3 uid="uid://dhyavl78cam2c"]

[ext_resource type="Script" path="res://gui/control_config/editor_input_map/action.gd" id="1"]

[node name="Action" type="VBoxContainer"]
offset_right = 372.0
offset_bottom = 28.0
script = ExtResource("1")

[node name="HBox" type="HBoxContainer" parent="."]
layout_mode = 2

[node name="Name" type="Button" parent="HBox"]
layout_mode = 2
size_flags_horizontal = 3
toggle_mode = true
text = "name_of_action"

[node name="Deadzone" type="SpinBox" parent="HBox"]
layout_mode = 2
max_value = 1.0
step = 0.01
value = 0.5

[node name="Add" type="MenuButton" parent="HBox"]
layout_mode = 2
text = "Add Input"
flat = false
item_count = 4
popup/item_0/text = "Key"
popup/item_0/id = 0
popup/item_1/text = "Joy Button"
popup/item_1/id = 1
popup/item_2/text = "Joy Axis"
popup/item_2/id = 2
popup/item_3/text = "Mouse Button"
popup/item_3/id = 3

[node name="Delete" type="Button" parent="HBox"]
layout_mode = 2
text = "Delete Action"

[node name="Inputs" type="VBoxContainer" parent="."]
layout_mode = 2
