[gd_scene load_steps=2 format=3 uid="uid://c0cwspv1xdpet"]

[ext_resource type="Script" path="res://gui/control_config/editor_input_map/input.gd" id="1"]

[node name="Input" type="HBoxContainer"]
offset_right = 83.0
offset_bottom = 14.0
script = ExtResource("1")

[node name="Name" type="Label" parent="."]
layout_mode = 2
size_flags_horizontal = 3
text = "Action Name"

[node name="Edit" type="Button" parent="."]
layout_mode = 2
text = "Edit"

[node name="Delete" type="Button" parent="."]
layout_mode = 2
text = "Delete"
