[gd_scene load_steps=2 format=3 uid="uid://ffcyc751hufo"]

[ext_resource type="PackedScene" uid="uid://o5ii7mhr1jte" path="res://levels/0-placer-session_items/placer-gameplay_elements/placer_health_pickup_high.tscn" id="1_n1jwf"]

[node name="PlacerHealthPickupHigh" instance=ExtResource("1_n1jwf")]
placement_objects_names = Array[String](["landscape_landscape01", "roads_landscape01"])
placement_mask_object_name = "navmesh_landscape01"
