[gd_scene load_steps=3 format=3 uid="uid://74r8wo2vnpfw"]

[ext_resource type="PackedScene" uid="uid://cohhsbwc5ujfl" path="res://xxx-no-export/vehicles/ai/models/tow_truck_ai.tscn" id="1"]
[ext_resource type="Script" path="res://vehicles/ai/steering_drivers/vehicle_ai_steering_driver.gd" id="2"]

[node name="TowTruckAIDriver" type="Node3D"]
script = ExtResource("2")
vehicle_sound_name = "vehicle_engine_1"

[node name="TowTruckAI" parent="." instance=ExtResource("1")]
