[gd_scene load_steps=10 format=3 uid="uid://c4chocovoq7gh"]

[ext_resource type="Material" path="res://assets-no-export/materials/car_red_body.tres" id="1"]
[ext_resource type="ArrayMesh" uid="uid://p3toknu5x17u" path="res://assets-no-export/vehicles/car_base_body.tres" id="2"]
[ext_resource type="Script" path="res://vehicles/bodies/chassis.gd" id="3"]

[sub_resource type="PhysicsMaterial" id="1"]
friction = 0.5

[sub_resource type="BoxShape3D" id="7"]
size = Vector3(0.576342, 0.5, 1.33732)

[sub_resource type="ArrayMesh" id="2"]
_surfaces = [{
"aabb": AABB(-0.0614569, -0.228035, -0.228035, 0.122914, 0.45608, 0.45607),
"format": 34359742467,
"index_count": 132,
"index_data": PackedByteArray(0, 0, 2, 0, 1, 0, 1, 0, 4, 0, 3, 0, 4, 0, 6, 0, 5, 0, 6, 0, 8, 0, 7, 0, 8, 0, 10, 0, 9, 0, 10, 0, 2, 0, 11, 0, 1, 0, 2, 0, 4, 0, 4, 0, 8, 0, 6, 0, 8, 0, 2, 0, 10, 0, 4, 0, 2, 0, 8, 0, 12, 0, 14, 0, 13, 0, 13, 0, 16, 0, 15, 0, 16, 0, 18, 0, 17, 0, 18, 0, 20, 0, 19, 0, 20, 0, 22, 0, 21, 0, 22, 0, 14, 0, 23, 0, 13, 0, 14, 0, 16, 0, 16, 0, 20, 0, 18, 0, 20, 0, 14, 0, 22, 0, 16, 0, 14, 0, 20, 0, 24, 0, 26, 0, 25, 0, 24, 0, 27, 0, 26, 0, 28, 0, 30, 0, 29, 0, 28, 0, 31, 0, 30, 0, 32, 0, 34, 0, 33, 0, 32, 0, 35, 0, 34, 0, 36, 0, 38, 0, 37, 0, 36, 0, 39, 0, 38, 0, 40, 0, 42, 0, 41, 0, 40, 0, 43, 0, 42, 0, 44, 0, 46, 0, 45, 0, 44, 0, 47, 0, 46, 0, 48, 0, 50, 0, 49, 0, 48, 0, 51, 0, 50, 0, 52, 0, 54, 0, 53, 0, 52, 0, 55, 0, 54, 0, 56, 0, 58, 0, 57, 0, 56, 0, 59, 0, 58, 0, 60, 0, 62, 0, 61, 0, 60, 0, 63, 0, 62, 0, 64, 0, 66, 0, 65, 0, 64, 0, 67, 0, 66, 0, 68, 0, 70, 0, 69, 0, 68, 0, 71, 0, 70, 0),
"material": ExtResource("1"),
"name": "Material.001",
"primitive": 3,
"uv_scale": Vector4(0, 0, 0, 0),
"vertex_count": 72,
"vertex_data": PackedByteArray(0, 160, 123, 189, 0, 128, 105, 62, 0, 64, 122, 61, 0, 160, 123, 189, 0, 128, 105, 62, 0, 64, 122, 189, 0, 160, 123, 189, 0, 224, 42, 62, 0, 224, 42, 62, 0, 160, 123, 189, 0, 224, 42, 62, 0, 224, 42, 190, 0, 160, 123, 189, 0, 64, 122, 61, 0, 128, 105, 190, 0, 160, 123, 189, 0, 64, 122, 189, 0, 128, 105, 190, 0, 160, 123, 189, 0, 224, 42, 190, 0, 224, 42, 190, 0, 160, 123, 189, 0, 128, 105, 190, 0, 64, 122, 189, 0, 160, 123, 189, 0, 128, 105, 190, 0, 64, 122, 61, 0, 160, 123, 189, 0, 224, 42, 190, 0, 224, 42, 62, 0, 160, 123, 189, 0, 64, 122, 189, 0, 128, 105, 62, 0, 160, 123, 189, 0, 64, 122, 61, 0, 128, 105, 62, 0, 160, 123, 61, 0, 128, 105, 62, 0, 64, 122, 61, 0, 160, 123, 61, 0, 224, 42, 62, 0, 224, 42, 62, 0, 160, 123, 61, 0, 128, 105, 62, 0, 64, 122, 189, 0, 160, 123, 61, 0, 64, 122, 61, 0, 128, 105, 62, 0, 160, 123, 61, 0, 64, 122, 189, 0, 128, 105, 62, 0, 160, 123, 61, 0, 224, 42, 190, 0, 224, 42, 62, 0, 160, 123, 61, 0, 128, 105, 190, 0, 64, 122, 61, 0, 160, 123, 61, 0, 128, 105, 190, 0, 64, 122, 189, 0, 160, 123, 61, 0, 224, 42, 190, 0, 224, 42, 190, 0, 160, 123, 61, 0, 64, 122, 189, 0, 128, 105, 190, 0, 160, 123, 61, 0, 64, 122, 61, 0, 128, 105, 190, 0, 160, 123, 61, 0, 224, 42, 62, 0, 224, 42, 190, 0, 160, 123, 189, 0, 224, 42, 190, 0, 224, 42, 190, 0, 160, 123, 189, 0, 64, 122, 189, 0, 128, 105, 190, 0, 160, 123, 61, 0, 64, 122, 189, 0, 128, 105, 190, 0, 160, 123, 61, 0, 224, 42, 190, 0, 224, 42, 190, 0, 160, 123, 189, 0, 64, 122, 61, 0, 128, 105, 62, 0, 160, 123, 189, 0, 64, 122, 189, 0, 128, 105, 62, 0, 160, 123, 61, 0, 64, 122, 189, 0, 128, 105, 62, 0, 160, 123, 61, 0, 64, 122, 61, 0, 128, 105, 62, 0, 160, 123, 189, 0, 64, 122, 189, 0, 128, 105, 190, 0, 160, 123, 189, 0, 64, 122, 61, 0, 128, 105, 190, 0, 160, 123, 61, 0, 64, 122, 61, 0, 128, 105, 190, 0, 160, 123, 61, 0, 64, 122, 189, 0, 128, 105, 190, 0, 160, 123, 189, 0, 64, 122, 189, 0, 128, 105, 62, 0, 160, 123, 189, 0, 224, 42, 190, 0, 224, 42, 62, 0, 160, 123, 61, 0, 224, 42, 190, 0, 224, 42, 62, 0, 160, 123, 61, 0, 64, 122, 189, 0, 128, 105, 62, 0, 160, 123, 189, 0, 64, 122, 61, 0, 128, 105, 190, 0, 160, 123, 189, 0, 224, 42, 62, 0, 224, 42, 190, 0, 160, 123, 61, 0, 224, 42, 62, 0, 224, 42, 190, 0, 160, 123, 61, 0, 64, 122, 61, 0, 128, 105, 190, 0, 160, 123, 189, 0, 224, 42, 190, 0, 224, 42, 62, 0, 160, 123, 189, 0, 128, 105, 190, 0, 64, 122, 61, 0, 160, 123, 61, 0, 128, 105, 190, 0, 64, 122, 61, 0, 160, 123, 61, 0, 224, 42, 190, 0, 224, 42, 62, 0, 160, 123, 189, 0, 224, 42, 62, 0, 224, 42, 190, 0, 160, 123, 189, 0, 128, 105, 62, 0, 64, 122, 189, 0, 160, 123, 61, 0, 128, 105, 62, 0, 64, 122, 189, 0, 160, 123, 61, 0, 224, 42, 62, 0, 224, 42, 190, 0, 160, 123, 189, 0, 128, 105, 190, 0, 64, 122, 61, 0, 160, 123, 189, 0, 128, 105, 190, 0, 64, 122, 189, 0, 160, 123, 61, 0, 128, 105, 190, 0, 64, 122, 189, 0, 160, 123, 61, 0, 128, 105, 190, 0, 64, 122, 61, 0, 160, 123, 189, 0, 128, 105, 62, 0, 64, 122, 61, 0, 160, 123, 189, 0, 224, 42, 62, 0, 224, 42, 62, 0, 160, 123, 61, 0, 224, 42, 62, 0, 224, 42, 62, 0, 160, 123, 61, 0, 128, 105, 62, 0, 64, 122, 61, 0, 160, 123, 189, 0, 128, 105, 62, 0, 64, 122, 189, 0, 160, 123, 189, 0, 128, 105, 62, 0, 64, 122, 61, 0, 160, 123, 61, 0, 128, 105, 62, 0, 64, 122, 61, 0, 160, 123, 61, 0, 128, 105, 62, 0, 64, 122, 189, 0, 160, 123, 189, 0, 128, 105, 190, 0, 64, 122, 189, 0, 160, 123, 189, 0, 224, 42, 190, 0, 224, 42, 190, 0, 160, 123, 61, 0, 224, 42, 190, 0, 224, 42, 190, 0, 160, 123, 61, 0, 128, 105, 190, 0, 64, 122, 189, 0, 160, 123, 189, 0, 224, 42, 62, 0, 224, 42, 62, 0, 160, 123, 189, 0, 64, 122, 61, 0, 128, 105, 62, 0, 160, 123, 61, 0, 64, 122, 61, 0, 128, 105, 62, 0, 160, 123, 61, 0, 224, 42, 62, 0, 224, 42, 62, 0, 0, 255, 127, 0, 0, 255, 127, 0, 0, 255, 127, 0, 0, 255, 127, 0, 0, 255, 127, 0, 0, 255, 127, 0, 0, 255, 127, 0, 0, 255, 127, 0, 0, 255, 127, 0, 0, 255, 127, 0, 0, 255, 127, 0, 0, 255, 127, 255, 255, 255, 127, 255, 255, 255, 127, 255, 255, 255, 127, 255, 255, 255, 127, 255, 255, 255, 127, 255, 255, 255, 127, 255, 255, 255, 127, 255, 255, 255, 127, 255, 255, 255, 127, 255, 255, 255, 127, 255, 255, 255, 127, 255, 255, 255, 127, 28, 209, 0, 0, 28, 209, 0, 0, 28, 209, 0, 0, 28, 209, 0, 0, 255, 127, 255, 127, 255, 127, 255, 127, 255, 127, 255, 127, 255, 127, 255, 127, 255, 255, 255, 255, 255, 255, 255, 255, 255, 255, 255, 255, 255, 255, 255, 255, 255, 127, 29, 81, 255, 127, 29, 81, 255, 127, 29, 81, 255, 127, 29, 81, 28, 209, 255, 255, 28, 209, 255, 255, 28, 209, 255, 255, 28, 209, 255, 255, 255, 127, 226, 46, 255, 127, 226, 46, 255, 127, 226, 46, 255, 127, 226, 46, 225, 174, 255, 255, 225, 174, 255, 255, 225, 174, 255, 255, 225, 174, 255, 255, 255, 127, 0, 0, 255, 127, 0, 0, 255, 127, 0, 0, 255, 127, 0, 0, 255, 127, 28, 209, 255, 127, 28, 209, 255, 127, 28, 209, 255, 127, 28, 209, 255, 127, 255, 255, 255, 127, 255, 255, 255, 127, 255, 255, 255, 127, 255, 255, 225, 174, 0, 0, 225, 174, 0, 0, 225, 174, 0, 0, 225, 174, 0, 0, 255, 127, 225, 174, 255, 127, 225, 174, 255, 127, 225, 174, 255, 127, 225, 174)
}]

[sub_resource type="ArrayMesh" id="3"]
_surfaces = [{
"aabb": AABB(-0.0614569, -0.228035, -0.228035, 0.122914, 0.45608, 0.45607),
"format": 34359742467,
"index_count": 132,
"index_data": PackedByteArray(0, 0, 2, 0, 1, 0, 1, 0, 4, 0, 3, 0, 4, 0, 6, 0, 5, 0, 6, 0, 8, 0, 7, 0, 8, 0, 10, 0, 9, 0, 10, 0, 2, 0, 11, 0, 1, 0, 2, 0, 4, 0, 4, 0, 8, 0, 6, 0, 8, 0, 2, 0, 10, 0, 4, 0, 2, 0, 8, 0, 12, 0, 14, 0, 13, 0, 13, 0, 16, 0, 15, 0, 16, 0, 18, 0, 17, 0, 18, 0, 20, 0, 19, 0, 20, 0, 22, 0, 21, 0, 22, 0, 14, 0, 23, 0, 13, 0, 14, 0, 16, 0, 16, 0, 20, 0, 18, 0, 20, 0, 14, 0, 22, 0, 16, 0, 14, 0, 20, 0, 24, 0, 26, 0, 25, 0, 24, 0, 27, 0, 26, 0, 28, 0, 30, 0, 29, 0, 28, 0, 31, 0, 30, 0, 32, 0, 34, 0, 33, 0, 32, 0, 35, 0, 34, 0, 36, 0, 38, 0, 37, 0, 36, 0, 39, 0, 38, 0, 40, 0, 42, 0, 41, 0, 40, 0, 43, 0, 42, 0, 44, 0, 46, 0, 45, 0, 44, 0, 47, 0, 46, 0, 48, 0, 50, 0, 49, 0, 48, 0, 51, 0, 50, 0, 52, 0, 54, 0, 53, 0, 52, 0, 55, 0, 54, 0, 56, 0, 58, 0, 57, 0, 56, 0, 59, 0, 58, 0, 60, 0, 62, 0, 61, 0, 60, 0, 63, 0, 62, 0, 64, 0, 66, 0, 65, 0, 64, 0, 67, 0, 66, 0, 68, 0, 70, 0, 69, 0, 68, 0, 71, 0, 70, 0),
"material": ExtResource("1"),
"name": "Material.001",
"primitive": 3,
"uv_scale": Vector4(0, 0, 0, 0),
"vertex_count": 72,
"vertex_data": PackedByteArray(0, 160, 123, 189, 0, 128, 105, 62, 0, 64, 122, 61, 0, 160, 123, 189, 0, 128, 105, 62, 0, 64, 122, 189, 0, 160, 123, 189, 0, 224, 42, 62, 0, 224, 42, 62, 0, 160, 123, 189, 0, 224, 42, 62, 0, 224, 42, 190, 0, 160, 123, 189, 0, 64, 122, 61, 0, 128, 105, 190, 0, 160, 123, 189, 0, 64, 122, 189, 0, 128, 105, 190, 0, 160, 123, 189, 0, 224, 42, 190, 0, 224, 42, 190, 0, 160, 123, 189, 0, 128, 105, 190, 0, 64, 122, 189, 0, 160, 123, 189, 0, 128, 105, 190, 0, 64, 122, 61, 0, 160, 123, 189, 0, 224, 42, 190, 0, 224, 42, 62, 0, 160, 123, 189, 0, 64, 122, 189, 0, 128, 105, 62, 0, 160, 123, 189, 0, 64, 122, 61, 0, 128, 105, 62, 0, 160, 123, 61, 0, 128, 105, 62, 0, 64, 122, 61, 0, 160, 123, 61, 0, 224, 42, 62, 0, 224, 42, 62, 0, 160, 123, 61, 0, 128, 105, 62, 0, 64, 122, 189, 0, 160, 123, 61, 0, 64, 122, 61, 0, 128, 105, 62, 0, 160, 123, 61, 0, 64, 122, 189, 0, 128, 105, 62, 0, 160, 123, 61, 0, 224, 42, 190, 0, 224, 42, 62, 0, 160, 123, 61, 0, 128, 105, 190, 0, 64, 122, 61, 0, 160, 123, 61, 0, 128, 105, 190, 0, 64, 122, 189, 0, 160, 123, 61, 0, 224, 42, 190, 0, 224, 42, 190, 0, 160, 123, 61, 0, 64, 122, 189, 0, 128, 105, 190, 0, 160, 123, 61, 0, 64, 122, 61, 0, 128, 105, 190, 0, 160, 123, 61, 0, 224, 42, 62, 0, 224, 42, 190, 0, 160, 123, 189, 0, 224, 42, 190, 0, 224, 42, 190, 0, 160, 123, 189, 0, 64, 122, 189, 0, 128, 105, 190, 0, 160, 123, 61, 0, 64, 122, 189, 0, 128, 105, 190, 0, 160, 123, 61, 0, 224, 42, 190, 0, 224, 42, 190, 0, 160, 123, 189, 0, 64, 122, 61, 0, 128, 105, 62, 0, 160, 123, 189, 0, 64, 122, 189, 0, 128, 105, 62, 0, 160, 123, 61, 0, 64, 122, 189, 0, 128, 105, 62, 0, 160, 123, 61, 0, 64, 122, 61, 0, 128, 105, 62, 0, 160, 123, 189, 0, 64, 122, 189, 0, 128, 105, 190, 0, 160, 123, 189, 0, 64, 122, 61, 0, 128, 105, 190, 0, 160, 123, 61, 0, 64, 122, 61, 0, 128, 105, 190, 0, 160, 123, 61, 0, 64, 122, 189, 0, 128, 105, 190, 0, 160, 123, 189, 0, 64, 122, 189, 0, 128, 105, 62, 0, 160, 123, 189, 0, 224, 42, 190, 0, 224, 42, 62, 0, 160, 123, 61, 0, 224, 42, 190, 0, 224, 42, 62, 0, 160, 123, 61, 0, 64, 122, 189, 0, 128, 105, 62, 0, 160, 123, 189, 0, 64, 122, 61, 0, 128, 105, 190, 0, 160, 123, 189, 0, 224, 42, 62, 0, 224, 42, 190, 0, 160, 123, 61, 0, 224, 42, 62, 0, 224, 42, 190, 0, 160, 123, 61, 0, 64, 122, 61, 0, 128, 105, 190, 0, 160, 123, 189, 0, 224, 42, 190, 0, 224, 42, 62, 0, 160, 123, 189, 0, 128, 105, 190, 0, 64, 122, 61, 0, 160, 123, 61, 0, 128, 105, 190, 0, 64, 122, 61, 0, 160, 123, 61, 0, 224, 42, 190, 0, 224, 42, 62, 0, 160, 123, 189, 0, 224, 42, 62, 0, 224, 42, 190, 0, 160, 123, 189, 0, 128, 105, 62, 0, 64, 122, 189, 0, 160, 123, 61, 0, 128, 105, 62, 0, 64, 122, 189, 0, 160, 123, 61, 0, 224, 42, 62, 0, 224, 42, 190, 0, 160, 123, 189, 0, 128, 105, 190, 0, 64, 122, 61, 0, 160, 123, 189, 0, 128, 105, 190, 0, 64, 122, 189, 0, 160, 123, 61, 0, 128, 105, 190, 0, 64, 122, 189, 0, 160, 123, 61, 0, 128, 105, 190, 0, 64, 122, 61, 0, 160, 123, 189, 0, 128, 105, 62, 0, 64, 122, 61, 0, 160, 123, 189, 0, 224, 42, 62, 0, 224, 42, 62, 0, 160, 123, 61, 0, 224, 42, 62, 0, 224, 42, 62, 0, 160, 123, 61, 0, 128, 105, 62, 0, 64, 122, 61, 0, 160, 123, 189, 0, 128, 105, 62, 0, 64, 122, 189, 0, 160, 123, 189, 0, 128, 105, 62, 0, 64, 122, 61, 0, 160, 123, 61, 0, 128, 105, 62, 0, 64, 122, 61, 0, 160, 123, 61, 0, 128, 105, 62, 0, 64, 122, 189, 0, 160, 123, 189, 0, 128, 105, 190, 0, 64, 122, 189, 0, 160, 123, 189, 0, 224, 42, 190, 0, 224, 42, 190, 0, 160, 123, 61, 0, 224, 42, 190, 0, 224, 42, 190, 0, 160, 123, 61, 0, 128, 105, 190, 0, 64, 122, 189, 0, 160, 123, 189, 0, 224, 42, 62, 0, 224, 42, 62, 0, 160, 123, 189, 0, 64, 122, 61, 0, 128, 105, 62, 0, 160, 123, 61, 0, 64, 122, 61, 0, 128, 105, 62, 0, 160, 123, 61, 0, 224, 42, 62, 0, 224, 42, 62, 0, 0, 255, 127, 0, 0, 255, 127, 0, 0, 255, 127, 0, 0, 255, 127, 0, 0, 255, 127, 0, 0, 255, 127, 0, 0, 255, 127, 0, 0, 255, 127, 0, 0, 255, 127, 0, 0, 255, 127, 0, 0, 255, 127, 0, 0, 255, 127, 255, 255, 255, 127, 255, 255, 255, 127, 255, 255, 255, 127, 255, 255, 255, 127, 255, 255, 255, 127, 255, 255, 255, 127, 255, 255, 255, 127, 255, 255, 255, 127, 255, 255, 255, 127, 255, 255, 255, 127, 255, 255, 255, 127, 255, 255, 255, 127, 28, 209, 0, 0, 28, 209, 0, 0, 28, 209, 0, 0, 28, 209, 0, 0, 255, 127, 255, 127, 255, 127, 255, 127, 255, 127, 255, 127, 255, 127, 255, 127, 255, 255, 255, 255, 255, 255, 255, 255, 255, 255, 255, 255, 255, 255, 255, 255, 255, 127, 29, 81, 255, 127, 29, 81, 255, 127, 29, 81, 255, 127, 29, 81, 28, 209, 255, 255, 28, 209, 255, 255, 28, 209, 255, 255, 28, 209, 255, 255, 255, 127, 226, 46, 255, 127, 226, 46, 255, 127, 226, 46, 255, 127, 226, 46, 225, 174, 255, 255, 225, 174, 255, 255, 225, 174, 255, 255, 225, 174, 255, 255, 255, 127, 0, 0, 255, 127, 0, 0, 255, 127, 0, 0, 255, 127, 0, 0, 255, 127, 28, 209, 255, 127, 28, 209, 255, 127, 28, 209, 255, 127, 28, 209, 255, 127, 255, 255, 255, 127, 255, 255, 255, 127, 255, 255, 255, 127, 255, 255, 225, 174, 0, 0, 225, 174, 0, 0, 225, 174, 0, 0, 225, 174, 0, 0, 255, 127, 225, 174, 255, 127, 225, 174, 255, 127, 225, 174, 255, 127, 225, 174)
}]

[sub_resource type="ArrayMesh" id="4"]
_surfaces = [{
"aabb": AABB(-0.061457, -0.228035, -0.228035, 0.122924, 0.45608, 0.45607),
"format": 34359742467,
"index_count": 132,
"index_data": PackedByteArray(0, 0, 2, 0, 1, 0, 1, 0, 4, 0, 3, 0, 4, 0, 6, 0, 5, 0, 6, 0, 8, 0, 7, 0, 8, 0, 10, 0, 9, 0, 10, 0, 2, 0, 11, 0, 1, 0, 2, 0, 4, 0, 4, 0, 8, 0, 6, 0, 8, 0, 2, 0, 10, 0, 4, 0, 2, 0, 8, 0, 12, 0, 14, 0, 13, 0, 13, 0, 16, 0, 15, 0, 16, 0, 18, 0, 17, 0, 18, 0, 20, 0, 19, 0, 20, 0, 22, 0, 21, 0, 22, 0, 14, 0, 23, 0, 13, 0, 14, 0, 16, 0, 16, 0, 20, 0, 18, 0, 20, 0, 14, 0, 22, 0, 16, 0, 14, 0, 20, 0, 24, 0, 26, 0, 25, 0, 24, 0, 27, 0, 26, 0, 28, 0, 30, 0, 29, 0, 28, 0, 31, 0, 30, 0, 32, 0, 34, 0, 33, 0, 32, 0, 35, 0, 34, 0, 36, 0, 38, 0, 37, 0, 36, 0, 39, 0, 38, 0, 40, 0, 42, 0, 41, 0, 40, 0, 43, 0, 42, 0, 44, 0, 46, 0, 45, 0, 44, 0, 47, 0, 46, 0, 48, 0, 50, 0, 49, 0, 48, 0, 51, 0, 50, 0, 52, 0, 54, 0, 53, 0, 52, 0, 55, 0, 54, 0, 56, 0, 58, 0, 57, 0, 56, 0, 59, 0, 58, 0, 60, 0, 62, 0, 61, 0, 60, 0, 63, 0, 62, 0, 64, 0, 66, 0, 65, 0, 64, 0, 67, 0, 66, 0, 68, 0, 70, 0, 69, 0, 68, 0, 71, 0, 70, 0),
"material": ExtResource("1"),
"name": "Material.001",
"primitive": 3,
"uv_scale": Vector4(0, 0, 0, 0),
"vertex_count": 72,
"vertex_data": PackedByteArray(0, 160, 123, 61, 0, 128, 105, 62, 0, 64, 122, 61, 0, 160, 123, 61, 0, 224, 42, 62, 0, 224, 42, 62, 0, 160, 123, 61, 0, 128, 105, 62, 0, 64, 122, 189, 0, 160, 123, 61, 0, 64, 122, 61, 0, 128, 105, 62, 0, 160, 123, 61, 0, 64, 122, 189, 0, 128, 105, 62, 0, 160, 123, 61, 0, 224, 42, 190, 0, 224, 42, 62, 0, 160, 123, 61, 0, 128, 105, 190, 0, 64, 122, 61, 0, 160, 123, 61, 0, 128, 105, 190, 0, 64, 122, 189, 0, 160, 123, 61, 0, 224, 42, 190, 0, 224, 42, 190, 0, 160, 123, 61, 0, 64, 122, 189, 0, 128, 105, 190, 0, 160, 123, 61, 0, 64, 122, 61, 0, 128, 105, 190, 0, 160, 123, 61, 0, 224, 42, 62, 0, 224, 42, 190, 0, 160, 123, 189, 0, 128, 105, 62, 0, 64, 122, 61, 0, 160, 123, 189, 0, 128, 105, 62, 0, 64, 122, 189, 0, 160, 123, 189, 0, 224, 42, 62, 0, 224, 42, 62, 0, 160, 123, 189, 0, 224, 42, 62, 0, 224, 42, 190, 0, 160, 123, 189, 0, 64, 122, 61, 0, 128, 105, 190, 0, 160, 123, 189, 0, 64, 122, 189, 0, 128, 105, 190, 0, 160, 123, 189, 0, 224, 42, 190, 0, 224, 42, 190, 0, 160, 123, 189, 0, 128, 105, 190, 0, 64, 122, 189, 0, 160, 123, 189, 0, 128, 105, 190, 0, 64, 122, 61, 0, 160, 123, 189, 0, 224, 42, 190, 0, 224, 42, 62, 0, 160, 123, 189, 0, 64, 122, 189, 0, 128, 105, 62, 0, 160, 123, 189, 0, 64, 122, 61, 0, 128, 105, 62, 0, 160, 123, 61, 0, 224, 42, 190, 0, 224, 42, 190, 0, 160, 123, 189, 0, 224, 42, 190, 0, 224, 42, 190, 0, 160, 123, 189, 0, 64, 122, 189, 0, 128, 105, 190, 0, 160, 123, 61, 0, 64, 122, 189, 0, 128, 105, 190, 0, 160, 123, 61, 0, 64, 122, 61, 0, 128, 105, 62, 0, 160, 123, 189, 0, 64, 122, 61, 0, 128, 105, 62, 0, 160, 123, 189, 0, 64, 122, 189, 0, 128, 105, 62, 0, 160, 123, 61, 0, 64, 122, 189, 0, 128, 105, 62, 0, 160, 123, 61, 0, 64, 122, 189, 0, 128, 105, 190, 0, 160, 123, 189, 0, 64, 122, 189, 0, 128, 105, 190, 0, 160, 123, 189, 0, 64, 122, 61, 0, 128, 105, 190, 0, 160, 123, 61, 0, 64, 122, 61, 0, 128, 105, 190, 0, 160, 123, 61, 0, 64, 122, 189, 0, 128, 105, 62, 0, 160, 123, 189, 0, 64, 122, 189, 0, 128, 105, 62, 0, 160, 123, 189, 0, 224, 42, 190, 0, 224, 42, 62, 0, 160, 123, 61, 0, 224, 42, 190, 0, 224, 42, 62, 0, 160, 123, 61, 0, 64, 122, 61, 0, 128, 105, 190, 0, 160, 123, 189, 0, 64, 122, 61, 0, 128, 105, 190, 0, 160, 123, 189, 0, 224, 42, 62, 0, 224, 42, 190, 0, 160, 123, 61, 0, 224, 42, 62, 0, 224, 42, 190, 0, 160, 123, 61, 0, 224, 42, 190, 0, 224, 42, 62, 0, 160, 123, 189, 0, 224, 42, 190, 0, 224, 42, 62, 0, 160, 123, 189, 0, 128, 105, 190, 0, 64, 122, 61, 0, 160, 123, 61, 0, 128, 105, 190, 0, 64, 122, 61, 0, 160, 123, 61, 0, 224, 42, 62, 0, 224, 42, 190, 0, 160, 123, 189, 0, 224, 42, 62, 0, 224, 42, 190, 0, 160, 123, 189, 0, 128, 105, 62, 0, 64, 122, 189, 0, 160, 123, 61, 0, 128, 105, 62, 0, 64, 122, 189, 0, 160, 123, 61, 0, 128, 105, 190, 0, 64, 122, 61, 0, 160, 123, 189, 0, 128, 105, 190, 0, 64, 122, 61, 0, 160, 123, 189, 0, 128, 105, 190, 0, 64, 122, 189, 0, 160, 123, 61, 0, 128, 105, 190, 0, 64, 122, 189, 0, 160, 123, 61, 0, 128, 105, 62, 0, 64, 122, 61, 0, 160, 123, 189, 0, 128, 105, 62, 0, 64, 122, 61, 0, 160, 123, 189, 0, 224, 42, 62, 0, 224, 42, 62, 0, 160, 123, 61, 0, 224, 42, 62, 0, 224, 42, 62, 0, 160, 123, 189, 0, 128, 105, 62, 0, 64, 122, 61, 0, 160, 123, 61, 0, 128, 105, 62, 0, 64, 122, 61, 0, 160, 123, 61, 0, 128, 105, 62, 0, 64, 122, 189, 0, 160, 123, 189, 0, 128, 105, 62, 0, 64, 122, 189, 0, 160, 123, 61, 0, 128, 105, 190, 0, 64, 122, 189, 0, 160, 123, 189, 0, 128, 105, 190, 0, 64, 122, 189, 0, 160, 123, 189, 0, 224, 42, 190, 0, 224, 42, 190, 0, 160, 123, 61, 0, 224, 42, 190, 0, 224, 42, 190, 0, 160, 123, 61, 0, 224, 42, 62, 0, 224, 42, 62, 0, 160, 123, 189, 0, 224, 42, 62, 0, 224, 42, 62, 0, 160, 123, 189, 0, 64, 122, 61, 0, 128, 105, 62, 0, 160, 123, 61, 0, 64, 122, 61, 0, 128, 105, 62, 255, 255, 255, 127, 255, 255, 255, 127, 255, 255, 255, 127, 255, 255, 255, 127, 255, 255, 255, 127, 255, 255, 255, 127, 255, 255, 255, 127, 255, 255, 255, 127, 255, 255, 255, 127, 255, 255, 255, 127, 255, 255, 255, 127, 255, 255, 255, 127, 0, 0, 255, 127, 0, 0, 255, 127, 0, 0, 255, 127, 0, 0, 255, 127, 0, 0, 255, 127, 0, 0, 255, 127, 0, 0, 255, 127, 0, 0, 255, 127, 0, 0, 255, 127, 0, 0, 255, 127, 0, 0, 255, 127, 0, 0, 255, 127, 28, 209, 0, 0, 28, 209, 0, 0, 28, 209, 0, 0, 28, 209, 0, 0, 255, 127, 255, 127, 255, 127, 255, 127, 255, 127, 255, 127, 255, 127, 255, 127, 255, 255, 255, 255, 255, 255, 255, 255, 255, 255, 255, 255, 255, 255, 255, 255, 255, 127, 29, 81, 255, 127, 29, 81, 255, 127, 29, 81, 255, 127, 29, 81, 28, 209, 255, 255, 28, 209, 255, 255, 28, 209, 255, 255, 28, 209, 255, 255, 255, 127, 226, 46, 255, 127, 226, 46, 255, 127, 226, 46, 255, 127, 226, 46, 225, 174, 255, 255, 225, 174, 255, 255, 225, 174, 255, 255, 225, 174, 255, 255, 255, 127, 0, 0, 255, 127, 0, 0, 255, 127, 0, 0, 255, 127, 0, 0, 255, 127, 28, 209, 255, 127, 28, 209, 255, 127, 28, 209, 255, 127, 28, 209, 255, 127, 255, 255, 255, 127, 255, 255, 255, 127, 255, 255, 255, 127, 255, 255, 225, 174, 0, 0, 225, 174, 0, 0, 225, 174, 0, 0, 225, 174, 0, 0, 255, 127, 225, 174, 255, 127, 225, 174, 255, 127, 225, 174, 255, 127, 225, 174)
}]

[sub_resource type="ArrayMesh" id="5"]
_surfaces = [{
"aabb": AABB(-0.061457, -0.228035, -0.228035, 0.122924, 0.45608, 0.45607),
"format": 34359742467,
"index_count": 132,
"index_data": PackedByteArray(0, 0, 2, 0, 1, 0, 1, 0, 4, 0, 3, 0, 4, 0, 6, 0, 5, 0, 6, 0, 8, 0, 7, 0, 8, 0, 10, 0, 9, 0, 10, 0, 2, 0, 11, 0, 1, 0, 2, 0, 4, 0, 4, 0, 8, 0, 6, 0, 8, 0, 2, 0, 10, 0, 4, 0, 2, 0, 8, 0, 12, 0, 14, 0, 13, 0, 13, 0, 16, 0, 15, 0, 16, 0, 18, 0, 17, 0, 18, 0, 20, 0, 19, 0, 20, 0, 22, 0, 21, 0, 22, 0, 14, 0, 23, 0, 13, 0, 14, 0, 16, 0, 16, 0, 20, 0, 18, 0, 20, 0, 14, 0, 22, 0, 16, 0, 14, 0, 20, 0, 24, 0, 26, 0, 25, 0, 24, 0, 27, 0, 26, 0, 28, 0, 30, 0, 29, 0, 28, 0, 31, 0, 30, 0, 32, 0, 34, 0, 33, 0, 32, 0, 35, 0, 34, 0, 36, 0, 38, 0, 37, 0, 36, 0, 39, 0, 38, 0, 40, 0, 42, 0, 41, 0, 40, 0, 43, 0, 42, 0, 44, 0, 46, 0, 45, 0, 44, 0, 47, 0, 46, 0, 48, 0, 50, 0, 49, 0, 48, 0, 51, 0, 50, 0, 52, 0, 54, 0, 53, 0, 52, 0, 55, 0, 54, 0, 56, 0, 58, 0, 57, 0, 56, 0, 59, 0, 58, 0, 60, 0, 62, 0, 61, 0, 60, 0, 63, 0, 62, 0, 64, 0, 66, 0, 65, 0, 64, 0, 67, 0, 66, 0, 68, 0, 70, 0, 69, 0, 68, 0, 71, 0, 70, 0),
"material": ExtResource("1"),
"name": "Material.001",
"primitive": 3,
"uv_scale": Vector4(0, 0, 0, 0),
"vertex_count": 72,
"vertex_data": PackedByteArray(0, 160, 123, 61, 0, 128, 105, 62, 0, 64, 122, 61, 0, 160, 123, 61, 0, 224, 42, 62, 0, 224, 42, 62, 0, 160, 123, 61, 0, 128, 105, 62, 0, 64, 122, 189, 0, 160, 123, 61, 0, 64, 122, 61, 0, 128, 105, 62, 0, 160, 123, 61, 0, 64, 122, 189, 0, 128, 105, 62, 0, 160, 123, 61, 0, 224, 42, 190, 0, 224, 42, 62, 0, 160, 123, 61, 0, 128, 105, 190, 0, 64, 122, 61, 0, 160, 123, 61, 0, 128, 105, 190, 0, 64, 122, 189, 0, 160, 123, 61, 0, 224, 42, 190, 0, 224, 42, 190, 0, 160, 123, 61, 0, 64, 122, 189, 0, 128, 105, 190, 0, 160, 123, 61, 0, 64, 122, 61, 0, 128, 105, 190, 0, 160, 123, 61, 0, 224, 42, 62, 0, 224, 42, 190, 0, 160, 123, 189, 0, 128, 105, 62, 0, 64, 122, 61, 0, 160, 123, 189, 0, 128, 105, 62, 0, 64, 122, 189, 0, 160, 123, 189, 0, 224, 42, 62, 0, 224, 42, 62, 0, 160, 123, 189, 0, 224, 42, 62, 0, 224, 42, 190, 0, 160, 123, 189, 0, 64, 122, 61, 0, 128, 105, 190, 0, 160, 123, 189, 0, 64, 122, 189, 0, 128, 105, 190, 0, 160, 123, 189, 0, 224, 42, 190, 0, 224, 42, 190, 0, 160, 123, 189, 0, 128, 105, 190, 0, 64, 122, 189, 0, 160, 123, 189, 0, 128, 105, 190, 0, 64, 122, 61, 0, 160, 123, 189, 0, 224, 42, 190, 0, 224, 42, 62, 0, 160, 123, 189, 0, 64, 122, 189, 0, 128, 105, 62, 0, 160, 123, 189, 0, 64, 122, 61, 0, 128, 105, 62, 0, 160, 123, 61, 0, 224, 42, 190, 0, 224, 42, 190, 0, 160, 123, 189, 0, 224, 42, 190, 0, 224, 42, 190, 0, 160, 123, 189, 0, 64, 122, 189, 0, 128, 105, 190, 0, 160, 123, 61, 0, 64, 122, 189, 0, 128, 105, 190, 0, 160, 123, 61, 0, 64, 122, 61, 0, 128, 105, 62, 0, 160, 123, 189, 0, 64, 122, 61, 0, 128, 105, 62, 0, 160, 123, 189, 0, 64, 122, 189, 0, 128, 105, 62, 0, 160, 123, 61, 0, 64, 122, 189, 0, 128, 105, 62, 0, 160, 123, 61, 0, 64, 122, 189, 0, 128, 105, 190, 0, 160, 123, 189, 0, 64, 122, 189, 0, 128, 105, 190, 0, 160, 123, 189, 0, 64, 122, 61, 0, 128, 105, 190, 0, 160, 123, 61, 0, 64, 122, 61, 0, 128, 105, 190, 0, 160, 123, 61, 0, 64, 122, 189, 0, 128, 105, 62, 0, 160, 123, 189, 0, 64, 122, 189, 0, 128, 105, 62, 0, 160, 123, 189, 0, 224, 42, 190, 0, 224, 42, 62, 0, 160, 123, 61, 0, 224, 42, 190, 0, 224, 42, 62, 0, 160, 123, 61, 0, 64, 122, 61, 0, 128, 105, 190, 0, 160, 123, 189, 0, 64, 122, 61, 0, 128, 105, 190, 0, 160, 123, 189, 0, 224, 42, 62, 0, 224, 42, 190, 0, 160, 123, 61, 0, 224, 42, 62, 0, 224, 42, 190, 0, 160, 123, 61, 0, 224, 42, 190, 0, 224, 42, 62, 0, 160, 123, 189, 0, 224, 42, 190, 0, 224, 42, 62, 0, 160, 123, 189, 0, 128, 105, 190, 0, 64, 122, 61, 0, 160, 123, 61, 0, 128, 105, 190, 0, 64, 122, 61, 0, 160, 123, 61, 0, 224, 42, 62, 0, 224, 42, 190, 0, 160, 123, 189, 0, 224, 42, 62, 0, 224, 42, 190, 0, 160, 123, 189, 0, 128, 105, 62, 0, 64, 122, 189, 0, 160, 123, 61, 0, 128, 105, 62, 0, 64, 122, 189, 0, 160, 123, 61, 0, 128, 105, 190, 0, 64, 122, 61, 0, 160, 123, 189, 0, 128, 105, 190, 0, 64, 122, 61, 0, 160, 123, 189, 0, 128, 105, 190, 0, 64, 122, 189, 0, 160, 123, 61, 0, 128, 105, 190, 0, 64, 122, 189, 0, 160, 123, 61, 0, 128, 105, 62, 0, 64, 122, 61, 0, 160, 123, 189, 0, 128, 105, 62, 0, 64, 122, 61, 0, 160, 123, 189, 0, 224, 42, 62, 0, 224, 42, 62, 0, 160, 123, 61, 0, 224, 42, 62, 0, 224, 42, 62, 0, 160, 123, 189, 0, 128, 105, 62, 0, 64, 122, 61, 0, 160, 123, 61, 0, 128, 105, 62, 0, 64, 122, 61, 0, 160, 123, 61, 0, 128, 105, 62, 0, 64, 122, 189, 0, 160, 123, 189, 0, 128, 105, 62, 0, 64, 122, 189, 0, 160, 123, 61, 0, 128, 105, 190, 0, 64, 122, 189, 0, 160, 123, 189, 0, 128, 105, 190, 0, 64, 122, 189, 0, 160, 123, 189, 0, 224, 42, 190, 0, 224, 42, 190, 0, 160, 123, 61, 0, 224, 42, 190, 0, 224, 42, 190, 0, 160, 123, 61, 0, 224, 42, 62, 0, 224, 42, 62, 0, 160, 123, 189, 0, 224, 42, 62, 0, 224, 42, 62, 0, 160, 123, 189, 0, 64, 122, 61, 0, 128, 105, 62, 0, 160, 123, 61, 0, 64, 122, 61, 0, 128, 105, 62, 255, 255, 255, 127, 255, 255, 255, 127, 255, 255, 255, 127, 255, 255, 255, 127, 255, 255, 255, 127, 255, 255, 255, 127, 255, 255, 255, 127, 255, 255, 255, 127, 255, 255, 255, 127, 255, 255, 255, 127, 255, 255, 255, 127, 255, 255, 255, 127, 0, 0, 255, 127, 0, 0, 255, 127, 0, 0, 255, 127, 0, 0, 255, 127, 0, 0, 255, 127, 0, 0, 255, 127, 0, 0, 255, 127, 0, 0, 255, 127, 0, 0, 255, 127, 0, 0, 255, 127, 0, 0, 255, 127, 0, 0, 255, 127, 28, 209, 0, 0, 28, 209, 0, 0, 28, 209, 0, 0, 28, 209, 0, 0, 255, 127, 255, 127, 255, 127, 255, 127, 255, 127, 255, 127, 255, 127, 255, 127, 255, 255, 255, 255, 255, 255, 255, 255, 255, 255, 255, 255, 255, 255, 255, 255, 255, 127, 29, 81, 255, 127, 29, 81, 255, 127, 29, 81, 255, 127, 29, 81, 28, 209, 255, 255, 28, 209, 255, 255, 28, 209, 255, 255, 28, 209, 255, 255, 255, 127, 226, 46, 255, 127, 226, 46, 255, 127, 226, 46, 255, 127, 226, 46, 225, 174, 255, 255, 225, 174, 255, 255, 225, 174, 255, 255, 225, 174, 255, 255, 255, 127, 0, 0, 255, 127, 0, 0, 255, 127, 0, 0, 255, 127, 0, 0, 255, 127, 28, 209, 255, 127, 28, 209, 255, 127, 28, 209, 255, 127, 28, 209, 255, 127, 255, 255, 255, 127, 255, 255, 255, 127, 255, 255, 255, 127, 255, 255, 225, 174, 0, 0, 225, 174, 0, 0, 225, 174, 0, 0, 225, 174, 0, 0, 255, 127, 225, 174, 255, 127, 225, 174, 255, 127, 225, 174, 255, 127, 225, 174)
}]

[node name="Body" type="VehicleBody3D"]
physics_material_override = SubResource("1")
continuous_cd = true
max_contacts_reported = 2
contact_monitor = true

[node name="Body" type="MeshInstance3D" parent="."]
mesh = ExtResource("2")
script = ExtResource("3")

[node name="CollisionShape3D" type="CollisionShape3D" parent="."]
transform = Transform3D(1, 0, 0, 0, 1, 0, 0, 0, 1, 0, 0.588269, 0.0774262)
shape = SubResource("7")

[node name="Wheel1" type="VehicleWheel3D" parent="."]
transform = Transform3D(1, 0, 0, 0, 1, 0, 0, 0, 1, 0.573678, 0.115169, 1.10416)
use_as_traction = true
use_as_steering = true
wheel_roll_influence = 0.4
wheel_radius = 0.25
wheel_friction_slip = 1.0
suspension_travel = 2.0
suspension_stiffness = 40.0
damping_compression = 0.88

[node name="Wheel1" type="MeshInstance3D" parent="Wheel1"]
_import_path = NodePath("BODY-vehicle/wheel1-wheel")
mesh = SubResource("2")

[node name="Wheel2" type="VehicleWheel3D" parent="."]
transform = Transform3D(1, 0, 0, 0, 1, 0, 0, 0, 1, 0.573678, 0.115169, -0.783403)
use_as_traction = true
wheel_roll_influence = 0.4
wheel_radius = 0.25
wheel_friction_slip = 1.0
suspension_travel = 2.0
suspension_stiffness = 40.0
damping_compression = 0.88

[node name="Wheel2" type="MeshInstance3D" parent="Wheel2"]
_import_path = NodePath("BODY-vehicle/wheel2-wheel")
mesh = SubResource("3")

[node name="Wheel3" type="VehicleWheel3D" parent="."]
transform = Transform3D(1, 0, 0, 0, 1, 0, 0, 0, 1, -0.573678, 0.115169, 1.10416)
use_as_traction = true
use_as_steering = true
wheel_roll_influence = 0.4
wheel_radius = 0.25
wheel_friction_slip = 1.0
suspension_travel = 2.0
suspension_stiffness = 40.0
damping_compression = 0.88

[node name="Wheel3" type="MeshInstance3D" parent="Wheel3"]
_import_path = NodePath("BODY-vehicle/wheel3-wheel")
mesh = SubResource("4")

[node name="Wheel4" type="VehicleWheel3D" parent="."]
transform = Transform3D(1, 0, 0, 0, 1, 0, 0, 0, 1, -0.573678, 0.115169, -0.783403)
use_as_traction = true
wheel_roll_influence = 0.4
wheel_radius = 0.25
wheel_friction_slip = 1.0
suspension_travel = 2.0
suspension_stiffness = 40.0
damping_compression = 0.88

[node name="Wheel4" type="MeshInstance3D" parent="Wheel4"]
_import_path = NodePath("BODY-vehicle/wheel4-wheel")
mesh = SubResource("5")
